<?xml version="1.0" encoding="UTF-8" standalone="no"?>
<!-- Created with Inkscape (http://www.inkscape.org/) -->

<svg
   xmlns:dc="http://purl.org/dc/elements/1.1/"
   xmlns:cc="http://creativecommons.org/ns#"
   xmlns:rdf="http://www.w3.org/1999/02/22-rdf-syntax-ns#"
   xmlns:svg="http://www.w3.org/2000/svg"
   xmlns="http://www.w3.org/2000/svg"
   xmlns:xlink="http://www.w3.org/1999/xlink"
   xmlns:sodipodi="http://sodipodi.sourceforge.net/DTD/sodipodi-0.dtd"
   xmlns:inkscape="http://www.inkscape.org/namespaces/inkscape"
   id="svg6115"
   version="1.1"
   inkscape:version="0.91 r13725"
   xml:space="preserve"
   width="218.62531"
   height="241.62552"
   viewBox="0 0 218.62531 241.62553"
   sodipodi:docname="music_1.svg"><metadata
     id="metadata6121"><rdf:RDF><cc:Work
         rdf:about=""><dc:format>image/svg+xml</dc:format><dc:type
           rdf:resource="http://purl.org/dc/dcmitype/StillImage" /><dc:title></dc:title></cc:Work></rdf:RDF></metadata><defs
     id="defs6119"><linearGradient
       inkscape:collect="always"
       id="linearGradient6771"><stop
         style="stop-color:#7a7a7a;stop-opacity:1"
         offset="0"
         id="stop6773" /><stop
         style="stop-color:#626262;stop-opacity:1"
         offset="1"
         id="stop6775" /></linearGradient><linearGradient
       id="linearGradient6749"
       inkscape:collect="always"><stop
         id="stop6751"
         offset="0"
         style="stop-color:#848484;stop-opacity:1" /><stop
         id="stop6753"
         offset="1"
         style="stop-color:#bbbbbb;stop-opacity:1" /></linearGradient><clipPath
       clipPathUnits="userSpaceOnUse"
       id="clipPath6129"><path
         d="m 0,1024 1024,0 L 1024,0 0,0 0,1024 Z"
         id="path6131"
         inkscape:connector-curvature="0" /></clipPath><linearGradient
       inkscape:collect="always"
       xlink:href="#linearGradient6749"
       id="linearGradient6764"
       gradientUnits="userSpaceOnUse"
       x1="-284.92957"
       y1="-129.04248"
       x2="-284.92957"
       y2="743.09308"
       gradientTransform="matrix(0.21656704,0,0,0.21688364,79.860406,839.45487)" /><linearGradient
       inkscape:collect="always"
       xlink:href="#linearGradient6771"
       id="linearGradient6777"
       x1="613.63348"
       y1="94.914886"
       x2="613.63348"
       y2="1190.5081"
       gradientUnits="userSpaceOnUse"
       gradientTransform="matrix(0.17325364,0,0,-0.17350692,-6.7474793,1018.0291)" /></defs><sodipodi:namedview
     pagecolor="#ffffff"
     bordercolor="#666666"
     borderopacity="1"
     objecttolerance="10"
     gridtolerance="10"
     guidetolerance="10"
     inkscape:pageopacity="0"
     inkscape:pageshadow="2"
     inkscape:window-width="1366"
     inkscape:window-height="745"
     id="namedview6117"
     showgrid="false"
     fit-margin-top="0"
     fit-margin-left="0"
     fit-margin-right="0"
     fit-margin-bottom="0"
     inkscape:zoom="2.085965"
     inkscape:cx="74.593139"
     inkscape:cy="128.60338"
     inkscape:window-x="-8"
     inkscape:window-y="-8"
     inkscape:window-maximized="1"
     inkscape:current-layer="g6125" /><g
     id="g6123"
     inkscape:groupmode="layer"
     inkscape:label="Music"
     transform="matrix(1.25,0,0,-1.25,-20.856411,1254.5415)"><g
       id="g6125"><path
         style="fill:url(#linearGradient6764);fill-opacity:1;fill-rule:nonzero;stroke:url(#linearGradient6777);stroke-width:3.20000019;stroke-miterlimit:4;stroke-dasharray:none;stroke-linejoin:miter"
         d="m 189.98472,1002.0332 -119.390356,-24.68806 0,-126.90437 c -6.58974,3.40707 -15.882891,4.51395 -25.609059,2.44367 -16.92189,-3.60245 -28.744652,-15.45518 -26.405949,-26.47439 2.338712,-11.01877 17.953301,-17.03116 34.875418,-13.42915 15.880698,3.38093 27.269267,14.02726 26.678011,24.43227 l -0.112682,116.76677 100.425507,21.28646 0,-107.42688 c -6.59094,3.41582 -15.89358,4.52706 -25.63036,2.45451 -16.92212,-3.60244 -28.74466,-15.45483 -26.40595,-26.47403 2.33892,-11.01879 17.95296,-17.03151 34.87507,-13.42951 15.40716,3.28012 26.58504,13.39879 26.698,23.50103 l 0.003,0 0,147.94168 z"
         id="path6135"
         inkscape:connector-curvature="0"
         inkscape:export-xdpi="89.330925"
         inkscape:export-ydpi="89.330925" /></g></g></svg>