<?xml version="1.0" encoding="UTF-8" standalone="no"?>
<!-- Created with Inkscape (http://www.inkscape.org/) -->

<svg
   xmlns:dc="http://purl.org/dc/elements/1.1/"
   xmlns:cc="http://creativecommons.org/ns#"
   xmlns:rdf="http://www.w3.org/1999/02/22-rdf-syntax-ns#"
   xmlns:svg="http://www.w3.org/2000/svg"
   xmlns="http://www.w3.org/2000/svg"
   xmlns:xlink="http://www.w3.org/1999/xlink"
   xmlns:sodipodi="http://sodipodi.sourceforge.net/DTD/sodipodi-0.dtd"
   xmlns:inkscape="http://www.inkscape.org/namespaces/inkscape"
   width="72.398636mm"
   height="70.620239mm"
   viewBox="0 0 256.5306 250.22919"
   id="svg4208"
   version="1.1"
   inkscape:version="0.91 r13725"
   sodipodi:docname="play.svg">
  <defs
     id="defs4210">
    <linearGradient
       id="linearGradient4778"
       inkscape:collect="always">
      <stop
         id="stop4780"
         offset="0"
         style="stop-color:#006800;stop-opacity:1" />
      <stop
         id="stop4782"
         offset="1"
         style="stop-color:#004d00;stop-opacity:1" />
    </linearGradient>
    <linearGradient
       inkscape:collect="always"
       id="linearGradient4762">
      <stop
         style="stop-color:#009100;stop-opacity:1"
         offset="0"
         id="stop4764" />
      <stop
         style="stop-color:#006b00;stop-opacity:1"
         offset="1"
         id="stop4766" />
    </linearGradient>
    <linearGradient
       inkscape:collect="always"
       xlink:href="#linearGradient4762"
       id="linearGradient4768"
       x1="93.76915"
       y1="12.362205"
       x2="93.76915"
       y2="225.93364"
       gradientUnits="userSpaceOnUse" />
    <linearGradient
       inkscape:collect="always"
       xlink:href="#linearGradient4778"
       id="linearGradient4776"
       x1="149.48747"
       y1="13.790775"
       x2="149.48747"
       y2="228.07649"
       gradientUnits="userSpaceOnUse" />
  </defs>
  <sodipodi:namedview
     id="base"
     pagecolor="#ffffff"
     bordercolor="#666666"
     borderopacity="1.0"
     inkscape:pageopacity="0.0"
     inkscape:pageshadow="2"
     inkscape:zoom="0.98994949"
     inkscape:cx="-11.859291"
     inkscape:cy="189.51986"
     inkscape:document-units="px"
     inkscape:current-layer="layer1"
     showgrid="false"
     fit-margin-top="0"
     fit-margin-left="0"
     fit-margin-right="0"
     fit-margin-bottom="0"
     inkscape:window-width="1366"
     inkscape:window-height="745"
     inkscape:window-x="-8"
     inkscape:window-y="-8"
     inkscape:window-maximized="1" />
  <metadata
     id="metadata4213">
    <rdf:RDF>
      <cc:Work
         rdf:about="">
        <dc:format>image/svg+xml</dc:format>
        <dc:type
           rdf:resource="http://purl.org/dc/dcmitype/StillImage" />
        <dc:title></dc:title>
      </cc:Work>
    </rdf:RDF>
  </metadata>
  <g
     inkscape:label="Layer 1"
     inkscape:groupmode="layer"
     id="layer1"
     transform="translate(-19.650912,-12.674735)">
    <path
       sodipodi:type="star"
       style="opacity:1;fill:url(#linearGradient4768);fill-opacity:1;stroke:url(#linearGradient4776);stroke-width:11.06691933;stroke-linecap:square;stroke-linejoin:round;stroke-miterlimit:4;stroke-dasharray:none;stroke-opacity:1"
       id="path4760"
       sodipodi:sides="3"
       sodipodi:cx="77.85714"
       sodipodi:cy="121.64792"
       sodipodi:r1="138.08087"
       sodipodi:r2="69.040436"
       sodipodi:arg1="0"
       sodipodi:arg2="1.0471976"
       inkscape:flatsided="true"
       inkscape:rounded="0"
       inkscape:randomized="0"
       d="M 215.93801,121.64792 8.8167038,241.22946 l 0,-239.1630839 z"
       inkscape:transform-center-x="-40.483307"
       transform="matrix(1.1757337,0,0,1,15.790691,16.141414)"
       inkscape:export-xdpi="84.162842"
       inkscape:export-ydpi="84.162842" />
  </g>
</svg>
