<?xml version="1.0" encoding="UTF-8" standalone="no"?>
<!-- Created with Inkscape (http://www.inkscape.org/) -->

<svg
   xmlns:dc="http://purl.org/dc/elements/1.1/"
   xmlns:cc="http://creativecommons.org/ns#"
   xmlns:rdf="http://www.w3.org/1999/02/22-rdf-syntax-ns#"
   xmlns:svg="http://www.w3.org/2000/svg"
   xmlns="http://www.w3.org/2000/svg"
   xmlns:xlink="http://www.w3.org/1999/xlink"
   xmlns:sodipodi="http://sodipodi.sourceforge.net/DTD/sodipodi-0.dtd"
   xmlns:inkscape="http://www.inkscape.org/namespaces/inkscape"
   width="120.19495"
   height="184.748"
   viewBox="0 0 120.19495 184.748"
   id="svg2"
   version="1.1"
   inkscape:version="0.91 r13725"
   sodipodi:docname="records.svg"
   inkscape:export-filename="C:\Users\Andrej\Desktop\miscellaneous\Programs\Godot Engine\Projects\HotAir\main\menu\textures\source\recordsraw.png"
   inkscape:export-xdpi="116.81022"
   inkscape:export-ydpi="116.81022">
  <defs
     id="defs4">
    <linearGradient
       id="linearGradient4194"
       inkscape:collect="always">
      <stop
         id="stop4196"
         offset="0"
         style="stop-color:#222295;stop-opacity:1" />
      <stop
         id="stop4198"
         offset="1"
         style="stop-color:#2727a9;stop-opacity:1" />
    </linearGradient>
    <linearGradient
       inkscape:collect="always"
       id="linearGradient4170">
      <stop
         style="stop-color:#218dcf;stop-opacity:1"
         offset="0"
         id="stop4172" />
      <stop
         style="stop-color:#016fb4;stop-opacity:1"
         offset="1"
         id="stop4174" />
    </linearGradient>
    <linearGradient
       inkscape:collect="always"
       id="linearGradient4154">
      <stop
         style="stop-color:#2727a9;stop-opacity:1"
         offset="0"
         id="stop4156" />
      <stop
         style="stop-color:#2d2dc3;stop-opacity:1"
         offset="1"
         id="stop4158" />
    </linearGradient>
    <linearGradient
       inkscape:collect="always"
       xlink:href="#linearGradient4154"
       id="linearGradient4160"
       x1="129.14764"
       y1="201.1256"
       x2="129.14764"
       y2="134.33989"
       gradientUnits="userSpaceOnUse" />
    <linearGradient
       inkscape:collect="always"
       xlink:href="#linearGradient4154"
       id="linearGradient4168"
       x1="110.21907"
       y1="135.41132"
       x2="110.21907"
       y2="43.982738"
       gradientUnits="userSpaceOnUse" />
    <linearGradient
       inkscape:collect="always"
       xlink:href="#linearGradient4170"
       id="linearGradient4176"
       x1="109.14764"
       y1="120.41132"
       x2="109.14764"
       y2="60.768459"
       gradientUnits="userSpaceOnUse" />
    <linearGradient
       inkscape:collect="always"
       xlink:href="#linearGradient4194"
       id="linearGradient4192"
       x1="131.2905"
       y1="138.55412"
       x2="131.2905"
       y2="42.839832"
       gradientUnits="userSpaceOnUse" />
    <linearGradient
       inkscape:collect="always"
       xlink:href="#linearGradient4194"
       id="linearGradient4206"
       x1="68.934502"
       y1="211.48578"
       x2="68.934502"
       y2="137.91434"
       gradientUnits="userSpaceOnUse" />
  </defs>
  <sodipodi:namedview
     id="base"
     pagecolor="#ffffff"
     bordercolor="#666666"
     borderopacity="1.0"
     inkscape:pageopacity="0.0"
     inkscape:pageshadow="2"
     inkscape:zoom="1.979899"
     inkscape:cx="84.336598"
     inkscape:cy="94.445684"
     inkscape:document-units="px"
     inkscape:current-layer="layer6"
     showgrid="false"
     inkscape:snap-bbox="true"
     inkscape:snap-bbox-midpoints="true"
     fit-margin-top="0"
     fit-margin-left="0"
     fit-margin-right="0"
     fit-margin-bottom="0"
     inkscape:window-width="1366"
     inkscape:window-height="745"
     inkscape:window-x="-8"
     inkscape:window-y="-8"
     inkscape:window-maximized="1"
     inkscape:snap-global="false"
     units="px" />
  <metadata
     id="metadata7">
    <rdf:RDF>
      <cc:Work
         rdf:about="">
        <dc:format>image/svg+xml</dc:format>
        <dc:type
           rdf:resource="http://purl.org/dc/dcmitype/StillImage" />
        <dc:title></dc:title>
      </cc:Work>
    </rdf:RDF>
  </metadata>
  <g
     inkscape:groupmode="layer"
     id="layer4"
     inkscape:label="Old"
     style="display:none"
     transform="translate(-0.37437674,-0.37437607)">
    <g
       inkscape:groupmode="layer"
       id="layer3"
       inkscape:label="Layer 3"
       transform="translate(-47.361924,-30.225122)"
       style="display:inline">
      <path
         style="fill:url(#linearGradient4160);fill-opacity:1;fill-rule:evenodd;stroke:url(#linearGradient4206);stroke-width:3.70000005;stroke-linecap:butt;stroke-linejoin:round;stroke-miterlimit:4;stroke-dasharray:none;stroke-opacity:1"
         d="m 86.10807,101.91019 c 0,0 -10.936134,41.96392 -18.793197,62.12029 -4.704221,12.06813 -16.887744,34.99612 -16.887744,34.99612 l 25.329957,-11.45831 1.407545,27.77921 c 0,0 14.613249,-26.11546 20.142441,-39.97376 4.311738,-10.80689 10.064958,-33.42331 10.064958,-33.42331 0,0 4.06197,19.70281 6.86059,29.35335 4.00218,13.80076 14.16879,40.71303 14.16879,40.71303 l 9.14214,-28.07506 22.70305,17.17259 c 0,0 -10.86762,-23.41646 -15.37616,-35.49745 -6.64633,-17.80939 -17.15794,-54.3851 -17.15794,-54.3851 z"
         id="path4152"
         inkscape:connector-curvature="0"
         sodipodi:nodetypes="cacccacacccacc" />
    </g>
    <g
       inkscape:label="Layer 1"
       inkscape:groupmode="layer"
       id="layer1"
       transform="translate(-47.361924,-30.225122)"
       style="display:inline">
      <path
         sodipodi:type="star"
         style="opacity:1;fill:url(#linearGradient4168);fill-opacity:1;stroke:url(#linearGradient4192);stroke-width:8.80000019;stroke-linecap:square;stroke-linejoin:miter;stroke-miterlimit:4;stroke-dasharray:none;stroke-opacity:1"
         id="path4144"
         sodipodi:sides="16"
         sodipodi:cx="107.83378"
         sodipodi:cy="90.696976"
         sodipodi:r1="56.62928"
         sodipodi:r2="51.725952"
         sodipodi:arg1="-1.0327365"
         sodipodi:arg2="-0.83638696"
         inkscape:flatsided="false"
         inkscape:rounded="0.23797517"
         inkscape:randomized="0"
         d="m 136.85464,42.069154 c 2.38845,1.425419 3.57875,8.371445 5.64323,10.235439 2.06447,1.863995 9.09559,2.340998 10.75675,4.571935 1.66116,2.230938 0.10272,9.103737 1.29673,11.615884 1.19401,2.512147 7.50737,5.643531 8.18834,8.340347 0.68097,2.696817 -3.38895,8.450067 -3.24718,11.227915 0.14176,2.777849 4.77621,8.086889 4.37332,10.839018 -0.40289,2.752128 -6.36468,6.509948 -7.29674,9.130598 -0.93207,2.62065 1.31793,9.29909 -0.10749,11.68755 -1.42542,2.38845 -8.37144,3.57875 -10.23544,5.64323 -1.86399,2.06447 -2.341,9.09558 -4.57193,10.75675 -2.23094,1.66116 -9.10374,0.10272 -11.61589,1.29673 -2.51215,1.194 -5.64353,7.50737 -8.34035,8.18833 -2.69681,0.68097 -8.45006,-3.38894 -11.22791,-3.24718 -2.77785,0.14176 -8.08689,4.77622 -10.839018,4.37333 -2.752129,-0.4029 -6.50995,-6.36468 -9.130598,-7.29675 -2.620647,-0.93206 -9.29909,1.31794 -11.687545,-0.10748 -2.388455,-1.42542 -3.578754,-8.37145 -5.64323,-10.23544 -2.064476,-1.864 -9.09559,-2.341 -10.75675,-4.57194 -1.661161,-2.23093 -0.102724,-9.10373 -1.296732,-11.61588 -1.194008,-2.51215 -7.507368,-5.64353 -8.188338,-8.34035 -0.680969,-2.69681 3.388945,-8.450065 3.247183,-11.227913 -0.141762,-2.777848 -4.776218,-8.086888 -4.373325,-10.839017 0.402893,-2.752129 6.364677,-6.509951 7.296742,-9.130598 0.932066,-2.620647 -1.317932,-9.29909 0.107487,-11.687546 1.425419,-2.388455 8.371445,-3.578753 10.23544,-5.64323 1.863994,-2.064476 2.340997,-9.09559 4.571935,-10.75675 2.230938,-1.661161 9.103736,-0.102724 11.615884,-1.296732 2.512147,-1.194007 5.643531,-7.507368 8.340347,-8.188338 2.696816,-0.680969 8.450068,3.388945 11.227918,3.247183 2.77785,-0.141762 8.08689,-4.776218 10.83901,-4.373325 2.75213,0.402893 6.50996,6.364677 9.1306,7.296743 2.62065,0.932065 9.29909,-1.317932 11.68755,0.107487 z" />
    </g>
    <g
       inkscape:groupmode="layer"
       id="layer2"
       inkscape:label="Layer 2"
       transform="translate(-47.361924,-30.225122)"
       style="display:inline">
      <circle
         style="opacity:1;fill:url(#linearGradient4176);fill-opacity:1;stroke:#d8bd00;stroke-width:4.5999999;stroke-linecap:square;stroke-linejoin:miter;stroke-miterlimit:4;stroke-dasharray:none;stroke-opacity:1"
         id="path4147"
         cx="107.83378"
         cy="90.696976"
         r="36.112953" />
    </g>
  </g>
  <g
     inkscape:label="New"
     id="g4168"
     inkscape:groupmode="layer"
     transform="translate(-0.37437674,-0.37437607)">
    <g
       style="display:inline"
       transform="translate(-47.361924,-30.225122)"
       inkscape:label="Layer 3"
       id="g4170"
       inkscape:groupmode="layer">
      <path
         sodipodi:nodetypes="cacccacacccacc"
         inkscape:connector-curvature="0"
         id="path4172"
         d="m 86.10807,101.91019 c 0,0 -10.936134,41.96392 -18.793197,62.12029 -4.704221,12.06813 -16.887744,34.99612 -16.887744,34.99612 l 25.329957,-11.45831 1.407545,27.77921 c 0,0 14.613249,-26.11546 20.142441,-39.97376 4.311738,-10.80689 10.064958,-33.42331 10.064958,-33.42331 0,0 4.06197,19.70281 6.86059,29.35335 4.00218,13.80076 14.16879,40.71303 14.16879,40.71303 l 9.14214,-28.07506 22.70305,17.17259 c 0,0 -10.86762,-23.41646 -15.37616,-35.49745 -6.64633,-17.80939 -17.15794,-54.3851 -17.15794,-54.3851 z"
         style="fill:#23239b;fill-opacity:1;fill-rule:evenodd;stroke:none;stroke-width:3.70000005;stroke-linecap:butt;stroke-linejoin:round;stroke-miterlimit:4;stroke-dasharray:none;stroke-opacity:1" />
    </g>
    <g
       style="display:inline"
       transform="translate(-47.361924,-30.225122)"
       id="g4174"
       inkscape:groupmode="layer"
       inkscape:label="Layer 1">
      <path
         d="m 138.94648,38.564032 c 2.56061,1.528164 3.83671,8.974865 6.04999,10.973217 2.21329,1.998352 9.75121,2.509737 11.53211,4.901482 1.7809,2.391745 0.11013,9.759939 1.3902,12.453164 1.28007,2.693224 8.0485,6.050319 8.77856,8.941524 0.73005,2.891204 -3.63323,9.059152 -3.48125,12.037229 0.15199,2.978078 5.1205,8.669796 4.68856,11.6203 -0.43193,2.950502 -6.82344,6.979192 -7.82269,9.788732 -0.99925,2.80955 1.41293,9.96938 -0.11524,12.53 -1.52816,2.56061 -8.97486,3.83671 -10.97321,6.04999 -1.99836,2.21329 -2.50974,9.75121 -4.90149,11.53211 -2.39174,1.78089 -9.75994,0.11012 -12.45316,1.3902 -2.69322,1.28007 -6.05032,8.0485 -8.94152,8.77855 -2.89121,0.73006 -9.05916,-3.63322 -12.03723,-3.48124 -2.97808,0.15198 -8.6698,5.12049 -11.620304,4.68856 -2.950504,-0.43193 -6.979192,-6.82345 -9.788737,-7.8227 -2.809545,-0.99925 -9.969374,1.41293 -12.52999,-0.11523 -2.560617,-1.52816 -3.836712,-8.97487 -6.049997,-10.97322 -2.213285,-1.99835 -9.751206,-2.50973 -11.532104,-4.90148 -1.780898,-2.39174 -0.110127,-9.75994 -1.3902,-12.45316 -1.280072,-2.69323 -8.048504,-6.05032 -8.778558,-8.94153 -0.730054,-2.8912 3.633222,-9.05915 3.481242,-12.037227 -0.15198,-2.978077 -5.120492,-8.669796 -4.688558,-11.6203 0.431934,-2.950504 6.823448,-6.979191 7.822697,-9.788736 0.999249,-2.809545 -1.41293,-9.969374 0.115234,-12.529991 1.528164,-2.560616 8.974864,-3.836712 10.973217,-6.049997 1.998352,-2.213285 2.509737,-9.751205 4.901482,-11.532103 2.391745,-1.780898 9.759939,-0.110128 12.453163,-1.3902 2.693225,-1.280073 6.05032,-8.048505 8.941524,-8.778559 2.891205,-0.730054 9.059149,3.633222 12.037229,3.481242 2.97808,-0.15198 8.6698,-5.120491 11.6203,-4.688557 2.95051,0.431934 6.97919,6.823447 9.78874,7.822696 2.80954,0.99925 9.96937,-1.41293 12.52999,0.115234 z"
         inkscape:randomized="0"
         inkscape:rounded="0.23797517"
         inkscape:flatsided="false"
         sodipodi:arg2="-0.83638696"
         sodipodi:arg1="-1.0327365"
         sodipodi:r2="55.454388"
         sodipodi:r1="60.711151"
         sodipodi:cy="90.696976"
         sodipodi:cx="107.83378"
         sodipodi:sides="16"
         id="path4176"
         style="opacity:1;fill:#2a2ab6;fill-opacity:1;stroke:none;stroke-width:8.80000019;stroke-linecap:square;stroke-linejoin:miter;stroke-miterlimit:4;stroke-dasharray:none;stroke-opacity:1"
         sodipodi:type="star" />
    </g>
    <g
       inkscape:groupmode="layer"
       id="layer6"
       inkscape:label="Layer 4"
       style="display:inline">
      <path
         d="m 91.584555,8.3389117 c 2.560616,1.528164 3.836712,8.9748643 6.049996,10.9732163 2.213285,1.998353 9.751209,2.509737 11.532109,4.901482 1.78089,2.391745 0.11012,9.75994 1.3902,12.453164 1.28007,2.693224 8.0485,6.05032 8.77855,8.941524 0.73006,2.891205 -3.63322,9.059152 -3.48124,12.03723 0.15198,2.978077 5.12049,8.669796 4.68856,11.6203 -0.43193,2.950504 -6.82345,6.979191 -7.8227,9.788736 -0.99925,2.809545 1.41293,9.969374 -0.11523,12.529991 -1.52817,2.560616 -8.97487,3.836712 -10.97322,6.049996 -1.99835,2.213285 -2.509735,9.751209 -4.90148,11.532109 -2.391745,1.78089 -9.75994,0.11012 -12.453164,1.3902 -2.693224,1.28007 -6.050319,8.0485 -8.941524,8.77855 -2.891204,0.73006 -9.059152,-3.63322 -12.037229,-3.48124 -2.978078,0.15198 -8.669796,5.12049 -11.6203,4.68856 -2.950505,-0.43193 -6.979192,-6.82345 -9.788737,-7.8227 -2.809545,-0.99925 -9.969374,1.41293 -12.52999,-0.11523 -2.560617,-1.52817 -3.836712,-8.97487 -6.049997,-10.97322 C 21.095874,99.63323 13.557953,99.121845 11.777055,96.7301 9.996157,94.338355 11.666927,86.97016 10.386855,84.276936 9.1067828,81.583712 2.3383506,78.226617 1.6082965,75.335412 0.87824236,72.444208 5.2415189,66.27626 5.0895386,63.298183 4.9375583,60.320105 -0.03095296,54.628387 0.40098105,51.677883 0.83291505,48.727378 7.2244284,44.698691 8.2236778,41.889146 9.2229271,39.079601 6.8107476,31.919772 8.3389117,29.359156 c 1.528164,-2.560617 8.9748643,-3.836712 10.9732163,-6.049997 1.998353,-2.213285 2.509737,-9.751206 4.901482,-11.532104 2.391745,-1.780898 9.75994,-0.110128 12.453164,-1.3902 2.693224,-1.2800722 6.05032,-8.0485044 8.941524,-8.7785585 2.891205,-0.73005414 9.059152,3.6332224 12.03723,3.4812421 2.978077,-0.1519803 8.669796,-5.12049156 11.6203,-4.68855755 2.950504,0.431934 6.979191,6.82344735 9.788736,7.82269675 2.809545,0.9992493 9.969374,-1.4129302 12.529991,0.1152339 z"
         inkscape:randomized="0"
         inkscape:rounded="0.23797517"
         inkscape:flatsided="false"
         sodipodi:arg2="-0.83638696"
         sodipodi:arg1="-1.0327365"
         sodipodi:r2="55.454388"
         sodipodi:r1="60.711151"
         sodipodi:cy="60.471855"
         sodipodi:cx="60.471855"
         sodipodi:sides="16"
         id="path4176-4"
         style="display:inline;opacity:1;fill:#2a2ab6;fill-opacity:1;stroke:none;stroke-width:8.80000019;stroke-linecap:square;stroke-linejoin:miter;stroke-miterlimit:4;stroke-dasharray:none;stroke-opacity:1"
         sodipodi:type="star" />
    </g>
    <g
       style="display:inline"
       transform="translate(-47.361924,-30.225122)"
       inkscape:label="Layer 2"
       id="g4178"
       inkscape:groupmode="layer">
      <circle
         r="36.112953"
         cy="90.696976"
         cx="107.83378"
         id="circle4180"
         style="opacity:1;fill:#107dc1;fill-opacity:1;stroke:#d8bd00;stroke-width:4.5999999;stroke-linecap:square;stroke-linejoin:miter;stroke-miterlimit:4;stroke-dasharray:none;stroke-opacity:1" />
    </g>
  </g>
</svg>
