<?xml version="1.0" encoding="UTF-8" standalone="no"?>
<!-- Created with Inkscape (http://www.inkscape.org/) -->

<svg
   xmlns:dc="http://purl.org/dc/elements/1.1/"
   xmlns:cc="http://creativecommons.org/ns#"
   xmlns:rdf="http://www.w3.org/1999/02/22-rdf-syntax-ns#"
   xmlns:svg="http://www.w3.org/2000/svg"
   xmlns="http://www.w3.org/2000/svg"
   xmlns:xlink="http://www.w3.org/1999/xlink"
   xmlns:sodipodi="http://sodipodi.sourceforge.net/DTD/sodipodi-0.dtd"
   xmlns:inkscape="http://www.inkscape.org/namespaces/inkscape"
   width="67.666183mm"
   height="58.284443mm"
   viewBox="0 0 239.76207 206.51968"
   id="svg2"
   version="1.1"
   inkscape:version="0.91 r13725"
   sodipodi:docname="sound.svg"
   inkscape:export-filename="C:\Users\Andrej\Desktop\miscellaneous\Programs\Godot Engine\Projects\HotAir\main\menu\textures\source\sound_0.png"
   inkscape:export-xdpi="90.089996"
   inkscape:export-ydpi="90.089996">
  <defs
     id="defs4">
    <linearGradient
       inkscape:collect="always"
       id="linearGradient4355">
      <stop
         style="stop-color:#7a7a7a;stop-opacity:1"
         offset="0"
         id="stop4357" />
      <stop
         style="stop-color:#626262;stop-opacity:1"
         offset="1"
         id="stop4359" />
    </linearGradient>
    <linearGradient
       id="linearGradient4287"
       inkscape:collect="always">
      <stop
         id="stop4289"
         offset="0"
         style="stop-color:#818181;stop-opacity:1;" />
      <stop
         id="stop4291"
         offset="1"
         style="stop-color:#bebebe;stop-opacity:1" />
    </linearGradient>
    <linearGradient
       inkscape:collect="always"
       xlink:href="#linearGradient4287"
       id="linearGradient4279"
       x1="181.14801"
       y1="221.39558"
       x2="181.14801"
       y2="22.381762"
       gradientUnits="userSpaceOnUse"
       gradientTransform="matrix(1.0194622,0,0,1.0049553,-1.6317429,-1.093145)" />
    <linearGradient
       inkscape:collect="always"
       xlink:href="#linearGradient4355"
       id="linearGradient4361"
       x1="83.057068"
       y1="22.381762"
       x2="83.057068"
       y2="221.39558"
       gradientUnits="userSpaceOnUse"
       gradientTransform="matrix(1.0194622,0,0,1.0049553,-1.6317429,-1.093145)" />
    <linearGradient
       inkscape:collect="always"
       xlink:href="#linearGradient4287"
       id="linearGradient4537"
       x1="336.58014"
       y1="222.39948"
       x2="336.58014"
       y2="20.399563"
       gradientUnits="userSpaceOnUse"
       gradientTransform="matrix(0.99998528,0,0,1.0042628,-15.96746,-0.52602429)" />
    <linearGradient
       inkscape:collect="always"
       xlink:href="#linearGradient4547"
       id="linearGradient4545"
       x1="214.04184"
       y1="20.399563"
       x2="214.04184"
       y2="222.39948"
       gradientUnits="userSpaceOnUse"
       gradientTransform="matrix(0.99998528,0,0,1.0042628,-15.96746,-0.52602429)" />
    <linearGradient
       id="linearGradient4547"
       inkscape:collect="always">
      <stop
         id="stop4549"
         offset="0"
         style="stop-color:#7a7a7a;stop-opacity:1" />
      <stop
         id="stop4551"
         offset="1"
         style="stop-color:#5d5d5d;stop-opacity:1" />
    </linearGradient>
  </defs>
  <sodipodi:namedview
     id="base"
     pagecolor="#ffffff"
     bordercolor="#666666"
     borderopacity="1.0"
     inkscape:pageopacity="0.0"
     inkscape:pageshadow="2"
     inkscape:zoom="1.4142136"
     inkscape:cx="131.37472"
     inkscape:cy="52.695913"
     inkscape:document-units="px"
     inkscape:current-layer="layer2"
     showgrid="false"
     inkscape:snap-bbox="true"
     inkscape:bbox-nodes="true"
     inkscape:snap-bbox-edge-midpoints="true"
     inkscape:window-width="1366"
     inkscape:window-height="745"
     inkscape:window-x="-8"
     inkscape:window-y="-8"
     inkscape:window-maximized="1"
     inkscape:snap-bbox-midpoints="true"
     fit-margin-top="0"
     fit-margin-left="0"
     fit-margin-right="0"
     fit-margin-bottom="0"
     inkscape:snap-page="true" />
  <metadata
     id="metadata7">
    <rdf:RDF>
      <cc:Work
         rdf:about="">
        <dc:format>image/svg+xml</dc:format>
        <dc:type
           rdf:resource="http://purl.org/dc/dcmitype/StillImage" />
        <dc:title></dc:title>
      </cc:Work>
    </rdf:RDF>
  </metadata>
  <g
     inkscape:label="Layer 1"
     inkscape:groupmode="layer"
     id="layer1"
     transform="translate(-81.8418,-18.131155)"
     style="display:inline">
    <path
       style="opacity:1;fill:url(#linearGradient4279);fill-opacity:1;stroke:url(#linearGradient4361);stroke-width:4;stroke-linecap:square;stroke-linejoin:miter;stroke-miterlimit:4;stroke-dasharray:none;stroke-opacity:1"
       d="m 182.2418,22.199442 -65.6,50.595182 -32.8,0 0,97.557216 32.8,0 65.6,50.24776 c 0,-72.97397 0,-128.564782 0,-198.400158 z"
       id="path4381"
       inkscape:connector-curvature="0"
       sodipodi:nodetypes="ccccccc" />
  </g>
  <g
     inkscape:groupmode="layer"
     id="layer2"
     inkscape:label="Layer 2"
     transform="translate(-81.8418,-18.131155)"
     style="display:inline">
    <path
       style="display:inline;opacity:1;fill:url(#linearGradient4537);fill-opacity:1;stroke:url(#linearGradient4545);stroke-width:4;stroke-linecap:square;stroke-linejoin:miter;stroke-miterlimit:4;stroke-dasharray:none;stroke-opacity:1"
       d="M 278.31611,20.964718 262.4218,36.974083 a 118.76699,119.27503 0 0 1 34.95848,84.416917 118.76699,119.27503 0 0 1 -34.96824,84.4071 l 15.90407,16.01917 a 140.99793,142.0242 0 0 0 0,-200.852552 z M 245.24628,54.276045 228.36177,71.28182 a 70.499379,70.800945 0 0 1 20.75164,50.10918 70.499379,70.800945 0 0 1 -20.7575,50.10525 l 16.89623,17.01756 A 94.43424,94.83819 0 0 0 273.05056,121.391 94.43424,94.83819 0 0 0 245.24628,54.276045 Z m -31.45461,31.683307 -14.72049,14.828568 a 28.990952,29.114963 0 0 1 8.53503,20.60308 28.990952,29.114963 0 0 1 -8.53503,20.607 l 14.72049,14.8266 A 49.853131,50.066382 0 0 0 228.46723,121.391 49.853131,50.066382 0 0 0 213.79167,85.959352 Z"
       id="path4393-1"
       inkscape:connector-curvature="0" />
  </g>
</svg>
