<?xml version="1.0" encoding="UTF-8" standalone="no"?>
<!-- Created with Inkscape (http://www.inkscape.org/) -->

<svg
   xmlns:dc="http://purl.org/dc/elements/1.1/"
   xmlns:cc="http://creativecommons.org/ns#"
   xmlns:rdf="http://www.w3.org/1999/02/22-rdf-syntax-ns#"
   xmlns:svg="http://www.w3.org/2000/svg"
   xmlns="http://www.w3.org/2000/svg"
   xmlns:xlink="http://www.w3.org/1999/xlink"
   xmlns:sodipodi="http://sodipodi.sourceforge.net/DTD/sodipodi-0.dtd"
   xmlns:inkscape="http://www.inkscape.org/namespaces/inkscape"
   width="61.01231mm"
   height="36.860641mm"
   viewBox="0 0 216.18535 130.60857"
   id="svg2"
   version="1.1"
   inkscape:version="0.91 r13725"
   sodipodi:docname="title.svg"
   inkscape:export-filename="C:\Users\Andrej\Desktop\miscellaneous\Programs\Godot Engine\Projects\HotAir\main\menu\textures\source\title.png"
   inkscape:export-xdpi="426.29999"
   inkscape:export-ydpi="426.29999">
  <defs
     id="defs4">
    <linearGradient
       inkscape:collect="always"
       id="linearGradient5099">
      <stop
         style="stop-color:#fff31e;stop-opacity:1"
         offset="0"
         id="stop5101" />
      <stop
         style="stop-color:#cfc400;stop-opacity:1"
         offset="1"
         id="stop5103" />
    </linearGradient>
    <linearGradient
       inkscape:collect="always"
       id="linearGradient5091">
      <stop
         style="stop-color:#d60000;stop-opacity:1"
         offset="0"
         id="stop5093" />
      <stop
         style="stop-color:#a40a0a;stop-opacity:1"
         offset="1"
         id="stop5095" />
    </linearGradient>
    <linearGradient
       inkscape:collect="always"
       xlink:href="#linearGradient4176"
       id="linearGradient5804"
       gradientUnits="userSpaceOnUse"
       x1="157.2244"
       y1="638.83099"
       x2="157.2244"
       y2="925.68939"
       spreadMethod="pad" />
    <linearGradient
       inkscape:collect="always"
       id="linearGradient4176">
      <stop
         style="stop-color:#d60000;stop-opacity:1"
         offset="0"
         id="stop4178" />
      <stop
         style="stop-color:#a30a0a;stop-opacity:1"
         offset="1"
         id="stop4180" />
    </linearGradient>
    <linearGradient
       inkscape:collect="always"
       xlink:href="#linearGradient5099"
       id="linearGradient5868"
       x1="117.65924"
       y1="49.001133"
       x2="117.65924"
       y2="294.36719"
       gradientUnits="userSpaceOnUse" />
    <linearGradient
       inkscape:collect="always"
       id="linearGradient5862">
      <stop
         style="stop-color:#fff31e;stop-opacity:1"
         offset="0"
         id="stop5864" />
      <stop
         style="stop-color:#cfc400;stop-opacity:1"
         offset="1"
         id="stop5866" />
    </linearGradient>
    <linearGradient
       inkscape:collect="always"
       xlink:href="#linearGradient5862"
       id="linearGradient5876"
       x1="108.20097"
       y1="49.546902"
       x2="108.20097"
       y2="295.327"
       gradientUnits="userSpaceOnUse" />
    <linearGradient
       inkscape:collect="always"
       xlink:href="#linearGradient5862"
       id="linearGradient4988"
       gradientUnits="userSpaceOnUse"
       x1="117.65924"
       y1="49.001133"
       x2="117.65924"
       y2="294.36719" />
    <linearGradient
       inkscape:collect="always"
       xlink:href="#linearGradient5862"
       id="linearGradient4990"
       gradientUnits="userSpaceOnUse"
       x1="117.65924"
       y1="49.001133"
       x2="117.65924"
       y2="294.36719" />
    <linearGradient
       inkscape:collect="always"
       xlink:href="#linearGradient5862"
       id="linearGradient4992"
       gradientUnits="userSpaceOnUse"
       x1="108.20097"
       y1="49.546902"
       x2="108.20097"
       y2="295.327" />
    <linearGradient
       inkscape:collect="always"
       xlink:href="#linearGradient5862"
       id="linearGradient4994"
       gradientUnits="userSpaceOnUse"
       x1="108.20097"
       y1="49.546902"
       x2="108.20097"
       y2="295.327" />
    <linearGradient
       inkscape:collect="always"
       xlink:href="#linearGradient5091"
       id="linearGradient5097"
       x1="200"
       y1="61.647919"
       x2="200"
       y2="113.79078"
       gradientUnits="userSpaceOnUse" />
    <linearGradient
       inkscape:collect="always"
       xlink:href="#linearGradient5099"
       id="linearGradient5105"
       x1="315.71429"
       y1="54.505058"
       x2="315.71429"
       y2="116.36488"
       gradientUnits="userSpaceOnUse" />
    <linearGradient
       inkscape:collect="always"
       xlink:href="#linearGradient5091"
       id="linearGradient5111"
       gradientUnits="userSpaceOnUse"
       x1="200"
       y1="61.647919"
       x2="200"
       y2="113.79078" />
    <linearGradient
       inkscape:collect="always"
       xlink:href="#linearGradient5091"
       id="linearGradient5113"
       gradientUnits="userSpaceOnUse"
       x1="200"
       y1="61.647919"
       x2="200"
       y2="113.79078" />
    <linearGradient
       inkscape:collect="always"
       xlink:href="#linearGradient5091"
       id="linearGradient5115"
       gradientUnits="userSpaceOnUse"
       x1="200"
       y1="61.647919"
       x2="200"
       y2="113.79078" />
    <linearGradient
       inkscape:collect="always"
       xlink:href="#linearGradient5099"
       id="linearGradient5117"
       gradientUnits="userSpaceOnUse"
       x1="315.71429"
       y1="54.505058"
       x2="315.71429"
       y2="116.36488" />
    <linearGradient
       inkscape:collect="always"
       xlink:href="#linearGradient5099"
       id="linearGradient5119"
       gradientUnits="userSpaceOnUse"
       x1="315.71429"
       y1="54.505058"
       x2="315.71429"
       y2="116.36488" />
    <linearGradient
       inkscape:collect="always"
       xlink:href="#linearGradient5099"
       id="linearGradient5121"
       gradientUnits="userSpaceOnUse"
       x1="315.71429"
       y1="54.505058"
       x2="315.71429"
       y2="116.36488" />
    <linearGradient
       inkscape:collect="always"
       xlink:href="#linearGradient5099"
       id="linearGradient5876-5"
       x1="108.20097"
       y1="49.546902"
       x2="108.20097"
       y2="295.327"
       gradientUnits="userSpaceOnUse" />
    <linearGradient
       inkscape:collect="always"
       xlink:href="#linearGradient5099"
       id="linearGradient6057"
       x1="108.20097"
       y1="49.546902"
       x2="108.20097"
       y2="295.327"
       gradientUnits="userSpaceOnUse" />
    <linearGradient
       inkscape:collect="always"
       xlink:href="#linearGradient5099"
       id="linearGradient6065"
       x1="108.20097"
       y1="49.546902"
       x2="108.20097"
       y2="295.327"
       gradientUnits="userSpaceOnUse" />
    <linearGradient
       inkscape:collect="always"
       xlink:href="#linearGradient5099"
       id="linearGradient5868-7"
       x1="117.65924"
       y1="49.001133"
       x2="117.65924"
       y2="294.36719"
       gradientUnits="userSpaceOnUse" />
    <linearGradient
       inkscape:collect="always"
       xlink:href="#linearGradient5099"
       id="linearGradient6080"
       x1="117.65924"
       y1="49.001133"
       x2="117.65924"
       y2="294.36719"
       gradientUnits="userSpaceOnUse" />
    <linearGradient
       inkscape:collect="always"
       xlink:href="#linearGradient5099"
       id="linearGradient6088"
       x1="117.65924"
       y1="49.001133"
       x2="117.65924"
       y2="294.36719"
       gradientUnits="userSpaceOnUse" />
    <linearGradient
       inkscape:collect="always"
       xlink:href="#linearGradient4176"
       id="linearGradient6100"
       gradientUnits="userSpaceOnUse"
       x1="157.2244"
       y1="638.83099"
       x2="157.2244"
       y2="925.68939"
       spreadMethod="pad" />
    <linearGradient
       y2="925.68939"
       x2="157.2244"
       y1="638.83099"
       x1="157.2244"
       spreadMethod="pad"
       gradientUnits="userSpaceOnUse"
       id="linearGradient6125"
       xlink:href="#linearGradient4176"
       inkscape:collect="always" />
    <linearGradient
       y2="294.36719"
       x2="117.65924"
       y1="49.001133"
       x1="117.65924"
       gradientUnits="userSpaceOnUse"
       id="linearGradient6129"
       xlink:href="#linearGradient5099"
       inkscape:collect="always" />
    <linearGradient
       y2="294.36719"
       x2="117.65924"
       y1="49.001133"
       x1="117.65924"
       gradientUnits="userSpaceOnUse"
       id="linearGradient6131"
       xlink:href="#linearGradient5099"
       inkscape:collect="always" />
    <linearGradient
       y2="295.327"
       x2="108.20097"
       y1="49.546902"
       x1="108.20097"
       gradientUnits="userSpaceOnUse"
       id="linearGradient6133"
       xlink:href="#linearGradient5099"
       inkscape:collect="always" />
    <linearGradient
       y2="295.327"
       x2="108.20097"
       y1="49.546902"
       x1="108.20097"
       gradientUnits="userSpaceOnUse"
       id="linearGradient6135"
       xlink:href="#linearGradient5099"
       inkscape:collect="always" />
    <linearGradient
       inkscape:collect="always"
       xlink:href="#linearGradient4176"
       id="linearGradient6327"
       gradientUnits="userSpaceOnUse"
       gradientTransform="translate(120.91546,-336.64761)"
       spreadMethod="pad"
       x1="157.2244"
       y1="638.83099"
       x2="157.2244"
       y2="925.68939" />
    <linearGradient
       inkscape:collect="always"
       xlink:href="#linearGradient4176"
       id="linearGradient6518"
       gradientUnits="userSpaceOnUse"
       gradientTransform="matrix(0.13780683,0,0,0.13780683,203.78234,-17.381163)"
       spreadMethod="pad"
       x1="157.2244"
       y1="638.83099"
       x2="157.2244"
       y2="925.68939" />
  </defs>
  <sodipodi:namedview
     id="base"
     pagecolor="#ffffff"
     bordercolor="#666666"
     borderopacity="1.0"
     inkscape:pageopacity="0.0"
     inkscape:pageshadow="2"
     inkscape:zoom="2.8"
     inkscape:cx="64.536747"
     inkscape:cy="76.651967"
     inkscape:document-units="px"
     inkscape:current-layer="layer1"
     showgrid="false"
     inkscape:window-width="1366"
     inkscape:window-height="745"
     inkscape:window-x="-8"
     inkscape:window-y="-8"
     inkscape:window-maximized="1"
     inkscape:snap-bbox="false"
     inkscape:bbox-nodes="true"
     inkscape:bbox-paths="true"
     fit-margin-top="0"
     fit-margin-left="0"
     fit-margin-right="0"
     fit-margin-bottom="0" />
  <metadata
     id="metadata7">
    <rdf:RDF>
      <cc:Work
         rdf:about="">
        <dc:format>image/svg+xml</dc:format>
        <dc:type
           rdf:resource="http://purl.org/dc/dcmitype/StillImage" />
        <dc:title></dc:title>
      </cc:Work>
    </rdf:RDF>
  </metadata>
  <g
     inkscape:groupmode="layer"
     id="layer2"
     inkscape:label="Layer 2"
     transform="translate(-147.48544,-54.684877)" />
  <g
     inkscape:label="Layer 1"
     inkscape:groupmode="layer"
     id="layer1"
     transform="translate(-147.48544,-54.684877)">
    <g
       id="g4163"
       style="fill:url(#linearGradient5097);fill-opacity:1;stroke:none;stroke-width:2;stroke-miterlimit:4;stroke-dasharray:none;stroke-opacity:1"
       inkscape:export-xdpi="426.29999"
       inkscape:export-ydpi="426.29999">
      <path
         d="m 169.80544,114.04488 q 0,1.04 -4.88,1.68 -4.8,0.64 -9.76,0.64 -4.88,0 -6.32,-0.56 -1.36,-0.56 -1.36,-1.76 l 0,-49.200003 q 0,-2 4.64,-3.6 4.64,-1.68 10.08,-1.68 7.6,0 7.6,3.6 l 0,17.6 7.12,0 0,-15.92 q 0,-2 4.64,-3.6 4.72,-1.68 10.16,-1.68 7.52,0 7.52,3.6 l 0,50.880003 q 0,1.04 -4.88,1.68 -4.88,0.64 -9.76,0.64 -4.88,0 -6.32,-0.56 -1.36,-0.56 -1.36,-1.76 l 0,-18.320003 -7.12,0 0,18.320003 z"
         style="font-style:normal;font-variant:normal;font-weight:normal;font-stretch:normal;font-size:80px;line-height:125%;font-family:'Titan One';-inkscape-font-specification:'Titan One';letter-spacing:0px;word-spacing:0px;fill:url(#linearGradient5111);fill-opacity:1;stroke:none;stroke-width:2;stroke-linecap:butt;stroke-linejoin:miter;stroke-miterlimit:4;stroke-dasharray:none;stroke-opacity:1"
         id="path4145"
         inkscape:connector-curvature="0" />
      <path
         d="m 229.85044,117.08488 q -6,0 -10.32,-1.04 -4.32,-1.04 -7.84,-3.68 -7.28,-5.28 -7.28,-19.680003 0,-12.8 7.44,-18.32 6.96,-5.12 18,-5.12 4.72,0 8.08,0.48 3.36,0.4 6.8,1.84 3.52,1.44 5.6,3.92 2.16,2.48 3.52,6.88 1.36,4.32 1.36,10.32 0,12.160003 -6.88,18.320003 -6.88,6.08 -18.48,6.08 z m -2.8,-15.6 q 0.56,2.88 1.12,3.44 0.64,0.56 1.6,0.56 1.04,0 1.6,-0.56 0.64,-0.56 1.12,-3.44 0.56,-2.880003 0.56,-7.200003 0,-4.4 -0.24,-6.72 -0.16,-2.4 -0.48,-3.68 -0.24,-1.28 -0.72,-2 -0.72,-1.04 -1.76,-1.04 -0.96,0 -1.6,0.64 -0.64,0.56 -1.2,3.52 -0.56,2.88 -0.56,8.24 0,5.36 0.56,8.240003 z"
         style="font-style:normal;font-variant:normal;font-weight:normal;font-stretch:normal;font-size:80px;line-height:125%;font-family:'Titan One';-inkscape-font-specification:'Titan One';letter-spacing:0px;word-spacing:0px;opacity:0;fill:url(#linearGradient5113);fill-opacity:1;stroke:none;stroke-width:2;stroke-linecap:butt;stroke-linejoin:miter;stroke-miterlimit:4;stroke-dasharray:none;stroke-opacity:1"
         id="path4147"
         inkscape:connector-curvature="0" />
      <path
         d="m 291.49419,115.64488 q -1.44,1.36 -6.56,1.36 -5.12,0 -8.48,-0.64 -3.36,-0.72 -6.4,-2.72 -5.84,-3.92 -5.84,-16.320003 l 0,-12.48 -4,0 q -0.88,0 -1.52,-1.84 -0.64,-1.84 -0.64,-5.04 0,-3.2 0.96,-5.6 1.04,-2.48 2.64,-2.48 l 2.56,0 0,-9.68 q 0,-2.48 4.8,-4 4.88,-1.52 9.52,-1.52 7.28,0 7.28,3.6 l 0,11.6 5.92,0 q 2.08,0 2.08,6 0,3.92 -0.96,6.48 -0.88,2.48 -2.32,2.48 l -4.72,0 0,14.64 q 0,2.160003 1.84,3.120003 1.84,0.88 3.2,0.88 1.44,0 1.76,1.36 0.32,1.36 0.32,4.08 0,5.36 -1.44,6.72 z"
         style="font-style:normal;font-variant:normal;font-weight:normal;font-stretch:normal;font-size:80px;line-height:125%;font-family:'Titan One';-inkscape-font-specification:'Titan One';letter-spacing:0px;word-spacing:0px;fill:url(#linearGradient5115);fill-opacity:1;stroke:none;stroke-width:2;stroke-linecap:butt;stroke-linejoin:miter;stroke-miterlimit:4;stroke-dasharray:none;stroke-opacity:1"
         id="path4149"
         inkscape:connector-curvature="0" />
    </g>
    <g
       id="g4168"
       transform="translate(-82.857143,68.928572)"
       style="fill:url(#linearGradient5105);fill-opacity:1;stroke:none;stroke-width:2;stroke-miterlimit:4;stroke-dasharray:none;stroke-opacity:1"
       inkscape:export-xdpi="426.29999"
       inkscape:export-ydpi="426.29999">
      <path
         d="m 339.09669,112.28488 q -0.16,2.32 -2.48,3.2 -2.24,0.88 -8.16,0.88 -5.92,0 -9.92,-1.04 -3.92,-1.12 -3.92,-2.8 0,-1.92 7.12,-24.480003 7.12,-22.64 8.16,-26.08 0.4,-1.04 6.4,-1.68 6.08,-0.72 12.96,-0.72 6.96,0 7.68,2.4 15.12,50.240003 15.12,51.040003 0,0.8 -0.96,1.6 -2.24,1.76 -8.88,1.76 -14.16,0 -14.48,-3.36 l -0.56,-5.2 -7.68,0 -0.4,4.48 z m 6.4,-19.680003 -1.2,-14.4 -1.76,0 -1.36,14.4 4.32,0 z"
         style="font-style:normal;font-variant:normal;font-weight:normal;font-stretch:normal;font-size:80px;line-height:125%;font-family:'Titan One';-inkscape-font-specification:'Titan One';letter-spacing:0px;word-spacing:0px;fill:url(#linearGradient5117);fill-opacity:1;stroke:none;stroke-width:2;stroke-linecap:butt;stroke-linejoin:miter;stroke-miterlimit:4;stroke-dasharray:none;stroke-opacity:1"
         id="path4151"
         inkscape:connector-curvature="0" />
      <path
         d="m 397.67919,75.004877 0,39.440003 q 0,0.88 -4.64,1.44 -4.56,0.48 -9.44,0.48 -4.8,0 -6.24,-0.4 -1.36,-0.48 -1.36,-1.52 l 0,-38.000003 q 0,-1.76 4.48,-3.44 4.56,-1.76 9.92,-1.76 7.28,0 7.28,3.76 z m -10.88,-21.04 q 5.28,0 8.24,1.6 3.04,1.52 3.04,5.6 0,7.2 -11.2,7.2 -11.2,0 -11.2,-7.2 0,-7.2 11.12,-7.2 z"
         style="font-style:normal;font-variant:normal;font-weight:normal;font-stretch:normal;font-size:80px;line-height:125%;font-family:'Titan One';-inkscape-font-specification:'Titan One';letter-spacing:0px;word-spacing:0px;fill:url(#linearGradient5119);fill-opacity:1;stroke:none;stroke-width:2;stroke-linecap:butt;stroke-linejoin:miter;stroke-miterlimit:4;stroke-dasharray:none;stroke-opacity:1"
         id="path4153"
         inkscape:connector-curvature="0" />
      <path
         d="m 425.24794,91.084877 0,23.360003 q 0,0.88 -4.56,1.44 -4.48,0.48 -9.36,0.48 -4.8,0 -6.24,-0.4 -1.44,-0.48 -1.44,-1.52 l 0,-39.440003 q 0,-1.52 4.4,-3.28 4.48,-1.76 9.68,-1.76 5.28,0 5.92,2.88 l 0.8,3.68 0.56,0 q 1.12,-3.04 5.36,-5.12 4.24,-2.16 8.48,-2.16 4.24,0 5.92,1.36 1.76,1.36 1.76,3.52 0,2.08 -0.32,5.36 -0.32,3.28 -1.6,7.12 -1.2,3.84 -3.2,3.84 -0.8,0 -5.04,-1.2 -4.24,-1.2 -7.04,-1.2 -2.72,0 -3.44,0.8 -0.64,0.8 -0.64,2.24 z"
         style="font-style:normal;font-variant:normal;font-weight:normal;font-stretch:normal;font-size:80px;line-height:125%;font-family:'Titan One';-inkscape-font-specification:'Titan One';letter-spacing:0px;word-spacing:0px;fill:url(#linearGradient5121);fill-opacity:1;stroke:none;stroke-width:2;stroke-linecap:butt;stroke-linejoin:miter;stroke-miterlimit:4;stroke-dasharray:none;stroke-opacity:1"
         id="path4155"
         inkscape:connector-curvature="0" />
    </g>
    <a
       transform="translate(120.91546,-336.64761)"
       id="a4921"
       style="display:inline;opacity:1" />
    <g
       id="g5041"
       transform="matrix(0.15100228,0.01366893,-0.01366893,0.15100228,-8.6528988,-29.267987)"
       inkscape:export-xdpi="426.29999"
       inkscape:export-ydpi="426.29999">
      <path
         inkscape:export-ydpi="33.736889"
         inkscape:export-xdpi="33.736889"
         inkscape:export-filename="C:\Users\Andrej\Desktop\miscellaneous\Programs\Godot Engine\Projects\HotAir\main\balloon\g3881.png"
         inkscape:connector-curvature="0"
         id="path3943"
         d="m 262.97464,634.11392 -6.38176,-46.53067 z"
         style="display:inline;fill:none;stroke:#462a0e;stroke-width:0.92661595;stroke-linecap:butt;stroke-linejoin:miter;stroke-miterlimit:4;stroke-dasharray:none;stroke-opacity:1" />
      <path
         inkscape:export-ydpi="33.736889"
         inkscape:export-xdpi="33.736889"
         inkscape:export-filename="C:\Users\Andrej\Desktop\miscellaneous\Programs\Godot Engine\Projects\HotAir\main\balloon\g3881.png"
         inkscape:connector-curvature="0"
         id="path3945"
         d="m 263.05205,634.43552 0,-46.74506 z"
         style="display:inline;fill:none;stroke:#462a0e;stroke-width:0.92661595;stroke-linecap:butt;stroke-linejoin:miter;stroke-miterlimit:4;stroke-dasharray:none;stroke-opacity:1" />
      <path
         inkscape:export-ydpi="33.736889"
         inkscape:export-xdpi="33.736889"
         inkscape:export-filename="C:\Users\Andrej\Desktop\miscellaneous\Programs\Godot Engine\Projects\HotAir\main\balloon\g3881.png"
         inkscape:connector-curvature="0"
         id="path3947"
         d="m 263.17718,634.54272 6.50689,-46.63784 z"
         style="display:inline;fill:none;stroke:#462a0e;stroke-width:0.92661595;stroke-linecap:butt;stroke-linejoin:miter;stroke-miterlimit:4;stroke-dasharray:none;stroke-opacity:1" />
      <path
         inkscape:export-ydpi="33.736889"
         inkscape:export-xdpi="33.736889"
         inkscape:export-filename="C:\Users\Andrej\Desktop\miscellaneous\Programs\Godot Engine\Projects\HotAir\main\balloon\g3881.png"
         inkscape:connector-curvature="0"
         id="path3943-1"
         d="m 318.94756,634.64992 -6.38177,-46.53061 z"
         style="display:inline;fill:none;stroke:#462a0e;stroke-width:0.92661595;stroke-linecap:butt;stroke-linejoin:miter;stroke-miterlimit:4;stroke-dasharray:none;stroke-opacity:1" />
      <path
         inkscape:export-ydpi="33.736889"
         inkscape:export-xdpi="33.736889"
         inkscape:export-filename="C:\Users\Andrej\Desktop\miscellaneous\Programs\Godot Engine\Projects\HotAir\main\balloon\g3881.png"
         inkscape:connector-curvature="0"
         id="path3945-6"
         d="m 319.27523,633.89952 0,-46.74513 z"
         style="display:inline;fill:none;stroke:#462a0e;stroke-width:0.92661595;stroke-linecap:butt;stroke-linejoin:miter;stroke-miterlimit:4;stroke-dasharray:none;stroke-opacity:1" />
      <path
         inkscape:export-ydpi="33.736889"
         inkscape:export-xdpi="33.736889"
         inkscape:export-filename="C:\Users\Andrej\Desktop\miscellaneous\Programs\Godot Engine\Projects\HotAir\main\balloon\g3881.png"
         inkscape:connector-curvature="0"
         id="path3947-8"
         d="m 319.40036,634.00672 6.50689,-46.63791 z"
         style="display:inline;fill:none;stroke:#462a0e;stroke-width:0.92661595;stroke-linecap:butt;stroke-linejoin:miter;stroke-miterlimit:4;stroke-dasharray:none;stroke-opacity:1" />
      <path
         inkscape:export-ydpi="33.736889"
         inkscape:export-xdpi="33.736889"
         inkscape:export-filename="C:\Users\Andrej\Desktop\miscellaneous\Programs\Godot Engine\Projects\HotAir\main\balloon\g3881.png"
         sodipodi:nodetypes="csssc"
         inkscape:connector-curvature="0"
         id="path2995"
         d="m 292.14286,236.56756 c -161.80762,0 -171.22742,112.29688 -171.22742,141.29688 0,56 36.52348,82.44818 75.99999,129 19.74152,23.27974 25.74861,59.96588 37.25773,68.68409 10.52877,7.97559 26.95357,15.82354 57.9697,15.82354"
         style="display:inline;opacity:1;fill:url(#linearGradient6327);fill-opacity:1;stroke:none" />
      <use
         inkscape:export-ydpi="33.736889"
         inkscape:export-xdpi="33.736889"
         inkscape:export-filename="C:\Users\Andrej\Desktop\miscellaneous\Programs\Godot Engine\Projects\HotAir\main\balloon\g3881.png"
         style="display:inline;opacity:1;stroke-width:1;stroke-linecap:round;stroke-linejoin:miter;stroke-miterlimit:4;stroke-dasharray:none"
         height="1052.3622"
         width="744.09448"
         transform="matrix(-1,0,0,1,584.28572,0)"
         id="use3765"
         xlink:href="#path2995"
         y="0"
         x="0" />
      <g
         style="display:inline;opacity:1;fill:url(#linearGradient5868);fill-opacity:1"
         transform="translate(120.05844,236.43262)"
         id="g3903">
        <path
           style="fill:url(#linearGradient4988);fill-opacity:1;stroke:none"
           d="m 152.67879,0.49445337 c 0,0 -13.02832,18.95644863 -13.95986,119.06780663 -0.93154,100.11136 18.5747,234.67241 18.5747,234.67241 0,0 -4.67063,-0.36598 -8.98667,-0.99895 -4.31603,-0.63296 -8.31087,-1.79094 -8.31087,-1.79094 0,0 -54.500716,-116.45533 -51.412976,-217.44335 C 91.670854,33.013411 120.21676,4.3124081 120.21676,4.3124081 c 0,0 3.38153,-0.8769532 13.60657,-2.2559219 10.22504,-1.37896866 18.85546,-1.56203283 18.85546,-1.56203283 z"
           id="path3802"
           inkscape:connector-curvature="0"
           sodipodi:nodetypes="csczczczc" />
        <path
           style="fill:url(#linearGradient4990);fill-opacity:1;stroke:none"
           d="m 76.434261,17.865337 c 0,0 -23.136355,20.671038 -24.067895,120.782393 -0.93154,100.11136 13.501022,119.95892 13.501022,119.95892 0,0 -5.84632,-6.30406 -9.455254,-10.2074 -3.608933,-3.90334 -9.348355,-10.52624 -9.348355,-10.52624 0,0 -23.289238,-41.60444 -26.201498,-94.34246 -2.91226,-52.738022 16.784981,-98.835553 16.784981,-98.835553 0,0 4.703716,-5.278023 15.443195,-13.275917 10.73948,-7.997895 23.343804,-13.553743 23.343804,-13.553743 z"
           id="path3802-1"
           inkscape:connector-curvature="0"
           sodipodi:nodetypes="csczczczc" />
      </g>
      <g
         style="display:inline;opacity:1;fill:url(#linearGradient5876);fill-opacity:1"
         transform="matrix(-1,0,0,1,462.66674,236.43262)"
         id="use3879">
        <path
           sodipodi:nodetypes="csczczczc"
           inkscape:connector-curvature="0"
           id="path3897"
           d="m 152.67879,0.52207473 c 0,0 -13.02832,18.91225427 -13.95986,119.02361527 -0.93154,100.11136 18.5747,234.67241 18.5747,234.67241 0,0 -4.67063,-0.36598 -8.98667,-0.99895 -4.31603,-0.63296 -8.31087,-1.79094 -8.31087,-1.79094 0,0 -54.500716,-116.45533 -51.412976,-217.44335 C 91.670854,32.996838 120.21676,4.3566023 120.21676,4.3566023 c 0,0 3.38153,-0.893526 13.60657,-2.2724947 10.22504,-1.3789687 18.85546,-1.56203287 18.85546,-1.56203287 z"
           style="fill:url(#linearGradient4992);fill-opacity:1;stroke:none" />
        <path
           sodipodi:nodetypes="csczczczc"
           inkscape:connector-curvature="0"
           id="path3899"
           d="m 76.434261,17.927837 c 0,0 -23.136355,20.608538 -24.067895,120.719893 -0.93154,100.11136 13.501022,119.93682 13.501022,119.93682 0,0 -5.84632,-6.30406 -9.455254,-10.2074 -3.608933,-3.90334 -9.348355,-10.52624 -9.348355,-10.52624 0,0 -23.289238,-41.58234 -26.201498,-94.32036 -2.91226,-52.738022 16.784981,-98.773053 16.784981,-98.773053 0,0 4.703716,-5.278023 15.443195,-13.275917 10.73948,-7.997895 23.343804,-13.553743 23.343804,-13.553743 z"
           style="fill:url(#linearGradient4994);fill-opacity:1;stroke:none" />
      </g>
      <path
         inkscape:export-ydpi="33.736889"
         inkscape:export-xdpi="33.736889"
         inkscape:export-filename="C:\Users\Andrej\Desktop\miscellaneous\Programs\Godot Engine\Projects\HotAir\main\balloon\g3881.png"
         sodipodi:nodetypes="csssscc"
         inkscape:connector-curvature="0"
         id="rect3918"
         d="m 325.66901,633.48766 0,38.7419 c 0,4.7786 -3.84703,8.6257 -8.62563,8.6257 l -50.98453,0 c -4.7786,0 -8.62563,-3.8471 -8.62563,-8.6257 l 0,-38.7419 z"
         style="display:inline;fill:#d58538;fill-opacity:1;stroke:none" />
    </g>
    <g
       id="g6481"
       transform="matrix(1.10028,0.23863772,-0.23863772,1.10028,-0.32684858,-47.515256)">
      <path
         inkscape:export-ydpi="33.736889"
         inkscape:export-xdpi="33.736889"
         inkscape:export-filename="C:\Users\Andrej\Desktop\miscellaneous\Programs\Godot Engine\Projects\HotAir\main\balloon\g3881.png"
         inkscape:connector-curvature="0"
         id="path3943-4"
         d="m 223.43312,121.18364 -0.87945,-6.41225 z"
         style="display:inline;fill:none;stroke:#462a0e;stroke-width:0.12769401;stroke-linecap:butt;stroke-linejoin:miter;stroke-miterlimit:4;stroke-dasharray:none;stroke-opacity:1" />
      <path
         inkscape:export-ydpi="33.736889"
         inkscape:export-xdpi="33.736889"
         inkscape:export-filename="C:\Users\Andrej\Desktop\miscellaneous\Programs\Godot Engine\Projects\HotAir\main\balloon\g3881.png"
         inkscape:connector-curvature="0"
         id="path3945-65"
         d="m 223.44379,121.22796 0,-6.4418 z"
         style="display:inline;fill:none;stroke:#462a0e;stroke-width:0.12769401;stroke-linecap:butt;stroke-linejoin:miter;stroke-miterlimit:4;stroke-dasharray:none;stroke-opacity:1" />
      <path
         inkscape:export-ydpi="33.736889"
         inkscape:export-xdpi="33.736889"
         inkscape:export-filename="C:\Users\Andrej\Desktop\miscellaneous\Programs\Godot Engine\Projects\HotAir\main\balloon\g3881.png"
         inkscape:connector-curvature="0"
         id="path3947-3"
         d="m 223.46103,121.24273 0.8967,-6.42702 z"
         style="display:inline;fill:none;stroke:#462a0e;stroke-width:0.12769401;stroke-linecap:butt;stroke-linejoin:miter;stroke-miterlimit:4;stroke-dasharray:none;stroke-opacity:1" />
      <path
         inkscape:export-ydpi="33.736889"
         inkscape:export-xdpi="33.736889"
         inkscape:export-filename="C:\Users\Andrej\Desktop\miscellaneous\Programs\Godot Engine\Projects\HotAir\main\balloon\g3881.png"
         inkscape:connector-curvature="0"
         id="path3943-1-8"
         d="m 231.14657,121.2575 -0.87945,-6.41224 z"
         style="display:inline;fill:none;stroke:#462a0e;stroke-width:0.12769401;stroke-linecap:butt;stroke-linejoin:miter;stroke-miterlimit:4;stroke-dasharray:none;stroke-opacity:1" />
      <path
         inkscape:export-ydpi="33.736889"
         inkscape:export-xdpi="33.736889"
         inkscape:export-filename="C:\Users\Andrej\Desktop\miscellaneous\Programs\Godot Engine\Projects\HotAir\main\balloon\g3881.png"
         inkscape:connector-curvature="0"
         id="path3945-6-5"
         d="m 231.19173,121.15409 0,-6.44181 z"
         style="display:inline;fill:none;stroke:#462a0e;stroke-width:0.12769401;stroke-linecap:butt;stroke-linejoin:miter;stroke-miterlimit:4;stroke-dasharray:none;stroke-opacity:1" />
      <path
         inkscape:export-ydpi="33.736889"
         inkscape:export-xdpi="33.736889"
         inkscape:export-filename="C:\Users\Andrej\Desktop\miscellaneous\Programs\Godot Engine\Projects\HotAir\main\balloon\g3881.png"
         inkscape:connector-curvature="0"
         id="path3947-8-8"
         d="m 231.20897,121.16887 0.89669,-6.42703 z"
         style="display:inline;fill:none;stroke:#462a0e;stroke-width:0.12769401;stroke-linecap:butt;stroke-linejoin:miter;stroke-miterlimit:4;stroke-dasharray:none;stroke-opacity:1" />
      <path
         inkscape:export-ydpi="33.736889"
         inkscape:export-xdpi="33.736889"
         inkscape:export-filename="C:\Users\Andrej\Desktop\miscellaneous\Programs\Godot Engine\Projects\HotAir\main\balloon\g3881.png"
         sodipodi:nodetypes="csssscc"
         inkscape:connector-curvature="0"
         id="rect3918-1"
         d="m 232.04854,121.11394 0,5.33889 c 0,0.65853 -0.53014,1.18868 -1.18867,1.18868 l -7.02601,0 c -0.65853,0 -1.18867,-0.53015 -1.18867,-1.18868 l 0,-5.33889 z"
         style="display:inline;fill:#d58538;fill-opacity:1;stroke:none" />
      <path
         inkscape:export-ydpi="33.736889"
         inkscape:export-xdpi="33.736889"
         inkscape:export-filename="C:\Users\Andrej\Desktop\miscellaneous\Programs\Godot Engine\Projects\HotAir\main\balloon\g3881.png"
         sodipodi:nodetypes="ccccc"
         inkscape:connector-curvature="0"
         id="path3924"
         d="m 227.37798,110.48149 c -4.37048,-0.61561 -6.58065,-1.2867 -6.58065,-1.2867 l 1.65829,5.69462 4.92236,0 z"
         style="display:inline;fill:#780707;fill-opacity:1;stroke:none" />
      <use
         inkscape:export-ydpi="33.736889"
         inkscape:export-xdpi="33.736889"
         inkscape:export-filename="C:\Users\Andrej\Desktop\miscellaneous\Programs\Godot Engine\Projects\HotAir\main\balloon\g3881.png"
         height="1052.3622"
         width="744.09448"
         transform="matrix(-1,0,0,1,454.65585,0)"
         id="use3936"
         xlink:href="#path3924"
         y="0"
         x="0"
         style="display:inline" />
      <path
         inkscape:export-ydpi="33.736889"
         inkscape:export-xdpi="33.736889"
         inkscape:export-filename="C:\Users\Andrej\Desktop\miscellaneous\Programs\Godot Engine\Projects\HotAir\main\balloon\g3881.png"
         sodipodi:nodetypes="csssc"
         inkscape:connector-curvature="0"
         id="path2995-3"
         d="m 227.37864,61.611807 c -22.2982,0 -23.59631,15.475276 -23.59631,19.471675 0,7.71718 5.03318,11.361922 10.47332,17.777081 2.72051,3.208107 3.54833,8.263707 5.13437,9.465137 1.45093,1.09909 3.71438,2.18059 7.98862,2.18059"
         style="display:inline;opacity:1;fill:url(#linearGradient6518);fill-opacity:1;stroke:none" />
      <use
         inkscape:export-ydpi="33.736889"
         inkscape:export-xdpi="33.736889"
         inkscape:export-filename="C:\Users\Andrej\Desktop\miscellaneous\Programs\Godot Engine\Projects\HotAir\main\balloon\g3881.png"
         style="display:inline;opacity:1;stroke-width:1;stroke-linecap:round;stroke-linejoin:miter;stroke-miterlimit:4;stroke-dasharray:none"
         height="1052.3622"
         width="744.09448"
         transform="matrix(-1,0,0,1,454.65715,0)"
         id="use3765-1"
         xlink:href="#path2995-3"
         y="0"
         x="0" />
      <g
         style="display:inline;opacity:1;fill:url(#linearGradient5868-7);fill-opacity:1"
         transform="matrix(0.13780683,0,0,0.13780683,203.77279,61.611807)"
         id="g3903-6">
        <path
           style="fill:url(#linearGradient6129);fill-opacity:1;stroke:none"
           d="m 152.67879,0.49445337 c 0,0 -13.02832,18.95644863 -13.95986,119.06780663 -0.93154,100.11136 18.5747,234.67241 18.5747,234.67241 0,0 -4.67063,-0.36598 -8.98667,-0.99895 -4.31603,-0.63296 -8.31087,-1.79094 -8.31087,-1.79094 0,0 -54.500716,-116.45533 -51.412976,-217.44335 C 91.670854,33.013411 120.21676,4.3124081 120.21676,4.3124081 c 0,0 3.38153,-0.8769532 13.60657,-2.2559219 10.22504,-1.37896866 18.85546,-1.56203283 18.85546,-1.56203283 z"
           id="path3802-0"
           inkscape:connector-curvature="0"
           sodipodi:nodetypes="csczczczc" />
        <path
           style="fill:url(#linearGradient6131);fill-opacity:1;stroke:none"
           d="m 76.434261,17.865337 c 0,0 -23.136355,20.671038 -24.067895,120.782393 -0.93154,100.11136 13.501022,119.95892 13.501022,119.95892 0,0 -5.84632,-6.30406 -9.455254,-10.2074 -3.608933,-3.90334 -9.348355,-10.52624 -9.348355,-10.52624 0,0 -23.289238,-41.60444 -26.201498,-94.34246 -2.91226,-52.738022 16.784981,-98.835553 16.784981,-98.835553 0,0 4.703716,-5.278023 15.443195,-13.275917 10.73948,-7.997895 23.343804,-13.553743 23.343804,-13.553743 z"
           id="path3802-1-1"
           inkscape:connector-curvature="0"
           sodipodi:nodetypes="csczczczc" />
      </g>
      <g
         style="display:inline;opacity:1;fill:url(#linearGradient5876-5);fill-opacity:1"
         transform="matrix(-0.13780683,0,0,0.13780683,250.88644,61.611807)"
         id="use3879-5">
        <path
           sodipodi:nodetypes="csczczczc"
           inkscape:connector-curvature="0"
           id="path3897-2"
           d="m 152.67879,0.52207473 c 0,0 -13.02832,18.91225427 -13.95986,119.02361527 -0.93154,100.11136 18.5747,234.67241 18.5747,234.67241 0,0 -4.67063,-0.36598 -8.98667,-0.99895 -4.31603,-0.63296 -8.31087,-1.79094 -8.31087,-1.79094 0,0 -54.500716,-116.45533 -51.412976,-217.44335 C 91.670854,32.996838 120.21676,4.3566023 120.21676,4.3566023 c 0,0 3.38153,-0.893526 13.60657,-2.2724947 10.22504,-1.3789687 18.85546,-1.56203287 18.85546,-1.56203287 z"
           style="fill:url(#linearGradient6133);fill-opacity:1;stroke:none" />
        <path
           sodipodi:nodetypes="csczczczc"
           inkscape:connector-curvature="0"
           id="path3899-3"
           d="m 76.434261,17.927837 c 0,0 -23.136355,20.608538 -24.067895,120.719893 -0.93154,100.11136 13.501022,119.93682 13.501022,119.93682 0,0 -5.84632,-6.30406 -9.455254,-10.2074 -3.608933,-3.90334 -9.348355,-10.52624 -9.348355,-10.52624 0,0 -23.289238,-41.58234 -26.201498,-94.32036 -2.91226,-52.738022 16.784981,-98.773053 16.784981,-98.773053 0,0 4.703716,-5.278023 15.443195,-13.275917 10.73948,-7.997895 23.343804,-13.553743 23.343804,-13.553743 z"
           style="fill:url(#linearGradient6135);fill-opacity:1;stroke:none" />
      </g>
    </g>
  </g>
</svg>
