<?xml version="1.0" encoding="UTF-8" standalone="no"?>
<!-- Created with Inkscape (http://www.inkscape.org/) -->

<svg
   xmlns:dc="http://purl.org/dc/elements/1.1/"
   xmlns:cc="http://creativecommons.org/ns#"
   xmlns:rdf="http://www.w3.org/1999/02/22-rdf-syntax-ns#"
   xmlns:svg="http://www.w3.org/2000/svg"
   xmlns="http://www.w3.org/2000/svg"
   xmlns:sodipodi="http://sodipodi.sourceforge.net/DTD/sodipodi-0.dtd"
   xmlns:inkscape="http://www.inkscape.org/namespaces/inkscape"
   width="37.530491mm"
   height="43.4645mm"
   viewBox="0 0 132.98204 154.00807"
   id="svg2"
   version="1.1"
   inkscape:version="0.91 r13725"
   sodipodi:docname="acorn3.svg"
   inkscape:export-filename="C:\Users\Andrej\Desktop\miscellaneous\Programs\Godot Engine\Projects\HotAir\main\hazards\Fruit\textures\source\acorn3.png"
   inkscape:export-xdpi="149.56909"
   inkscape:export-ydpi="149.56909">
  <defs
     id="defs4" />
  <sodipodi:namedview
     id="base"
     pagecolor="#ffffff"
     bordercolor="#666666"
     borderopacity="1.0"
     inkscape:pageopacity="0.0"
     inkscape:pageshadow="2"
     inkscape:zoom="5.456604"
     inkscape:cx="48.521462"
     inkscape:cy="52.400772"
     inkscape:document-units="px"
     inkscape:current-layer="g4273"
     showgrid="false"
     inkscape:snap-bbox="true"
     inkscape:snap-bbox-midpoints="true"
     inkscape:snap-global="false"
     fit-margin-top="0"
     fit-margin-left="0"
     fit-margin-right="0"
     fit-margin-bottom="0"
     inkscape:window-width="1366"
     inkscape:window-height="745"
     inkscape:window-x="-8"
     inkscape:window-y="-8"
     inkscape:window-maximized="1" />
  <metadata
     id="metadata7">
    <rdf:RDF>
      <cc:Work
         rdf:about="">
        <dc:format>image/svg+xml</dc:format>
        <dc:type
           rdf:resource="http://purl.org/dc/dcmitype/StillImage" />
        <dc:title />
      </cc:Work>
    </rdf:RDF>
  </metadata>
  <g
     inkscape:groupmode="layer"
     id="layer4"
     inkscape:label="Green"
     transform="translate(-221.42857,-231.21089)"
     style="display:inline;opacity:1">
    <g
       inkscape:label="Fill"
       inkscape:groupmode="layer"
       id="layer1"
       style="display:inline">
      <path
         style="opacity:1;fill:#d7ba4f;fill-opacity:1;fill-rule:evenodd;stroke:none;stroke-width:4;stroke-linecap:round;stroke-linejoin:round;stroke-miterlimit:4;stroke-dasharray:none;stroke-opacity:1"
         d="m 228.72638,314.43588 c 0,31.21073 19.49225,57.3707 45.70796,64.31407 4.45687,1.18043 9.10807,6.46899 13.89084,6.46899 4.55494,0 8.99054,-5.23043 13.25259,-6.30408 26.53696,-6.68489 46.34621,-33.01548 46.34621,-64.47898 0,-36.51679 -26.68329,-66.11951 -59.5988,-66.11951 -32.91551,0 -59.5988,29.60272 -59.5988,66.11951 z"
         id="path4136"
         inkscape:connector-curvature="0"
         sodipodi:nodetypes="sssssss" />
    </g>
    <g
       style="display:inline"
       id="g4242"
       inkscape:groupmode="layer"
       inkscape:label="Fill copy">
      <path
         sodipodi:nodetypes="scsssssss"
         inkscape:connector-curvature="0"
         id="path4244"
         d="m 310.21511,344.18323 c -0.0609,18.9003 -13.72445,33.33629 -29.4892,37.90424 2.48845,1.59912 5.0248,3.13147 7.59927,3.13147 4.55494,0 8.99054,-5.23043 13.25259,-6.30408 26.53696,-6.68489 46.34621,-33.01548 46.34621,-64.47898 0,-36.51679 -26.68329,-66.11951 -59.5988,-66.11951 -23.11561,0 -43.15759,14.59961 -53.0427,35.94061 -1.17218,2.53061 3.26345,12.39166 7.634,15.68235 19.91094,14.99141 67.38392,17.80351 67.29863,44.2439 z"
         style="opacity:1;fill:#cbaa2f;fill-opacity:1;fill-rule:evenodd;stroke:none;stroke-width:4;stroke-linecap:round;stroke-linejoin:round;stroke-miterlimit:4;stroke-dasharray:none;stroke-opacity:1" />
    </g>
  </g>
  <g
     inkscape:groupmode="layer"
     id="layer2"
     inkscape:label="Cap"
     style="display:inline"
     transform="translate(-221.42857,-231.21089)">
    <g
       inkscape:label="Fill"
       id="g4198"
       inkscape:groupmode="layer"
       style="display:inline">
      <path
         style="opacity:1;fill:#8e713b;fill-opacity:1;fill-rule:evenodd;stroke:none;stroke-width:3.99999976;stroke-linecap:round;stroke-linejoin:round;stroke-miterlimit:4;stroke-dasharray:none;stroke-opacity:1"
         d="m 248.20369,247.3035 c -16.24707,6.87897 -26.77512,17.59541 -26.77512,28.6497 0,18.5953 29.77006,7.83995 66.49213,7.83995 36.72206,0 66.48991,8.17307 66.48991,-10.42223 0,-10.511 -9.52033,-19.8929 -24.42265,-26.06742 l -81.78427,0 z"
         id="path4200"
         inkscape:connector-curvature="0" />
    </g>
    <g
       style="display:inline"
       inkscape:groupmode="layer"
       id="g4260"
       inkscape:label="Fill copy 1">
      <path
         style="opacity:1;fill:#9d7d41;fill-opacity:1;fill-rule:evenodd;stroke:none;stroke-width:3.99999976;stroke-linecap:round;stroke-linejoin:round;stroke-miterlimit:4;stroke-dasharray:none;stroke-opacity:1"
         d="m 250.48964,246.36847 c -14.32712,5.56775 -24.63765,14.05922 -27.93472,23.28611 -0.73991,2.07065 -1.12635,4.17881 -1.12635,6.29862 0,6.40659 10.53054,-2.84525 15.81097,-2.84525 5.28045,0 7.03326,5.98999 10.73134,5.98999 3.69808,0 13.95081,-7.00171 18.44059,-7.00171 4.48979,0 15.08837,6.04843 20.29862,6.04843 5.21026,0 16.88525,-5.6646 22.07906,-5.56449 5.1938,0.10012 13.60071,6.45203 17.24108,6.45203 3.64037,0 6.25785,-6.2621 12.58715,-6.2621 6.32928,0 15.79323,8.33574 15.79323,0.60082 0,-2.48021 -0.52926,-4.8988 -1.53431,-7.22634 -3.47485,-8.04727 -12.63875,-15.01472 -25.24302,-19.77611 l -77.14364,0 z"
         id="path4262"
         inkscape:connector-curvature="0" />
    </g>
    <g
       inkscape:label="Fill copy 1 copy 1"
       id="g4268"
       inkscape:groupmode="layer"
       style="display:inline">
      <path
         sodipodi:nodetypes="czzzzzsssszssssc"
         inkscape:connector-curvature="0"
         id="path4270"
         d="m 243.91154,256.47021 c 3.64891,0 -0.11319,5.06812 7.01113,5.06812 7.12429,0 11.91875,-6.51364 18.01025,-6.51364 6.0915,0 7.64701,5.58786 18.18365,5.58786 10.53664,0 12.52719,-6.44959 20.41496,-6.44959 7.88777,0 12.29386,6.58521 18.62314,6.58521 6.32928,0 -0.50731,-5.33183 8.88361,-5.36161 5.23855,-0.0167 14.454,4.30845 9.12741,0.0189 -7.60778,-6.12663 -19.02211,-10.89848 -32.54628,-13.50579 -3.48147,-0.67119 -7.64601,-1.5036 -11.37817,-1.46502 -4.19198,0.0433 0.8669,3.16531 -11.24998,3.16531 -12.11683,0 -7.35915,-2.87561 -11.08735,-2.87561 -4.25407,0 -10.08485,0.69158 -14.01047,1.54855 -12.31195,2.68773 -22.91724,7.31869 -30.19043,13.30926 -11.34325,9.3429 0.7436,0.88808 10.20853,0.88808 z"
         style="opacity:1;fill:#ae8a48;fill-opacity:1;fill-rule:evenodd;stroke:none;stroke-width:3.99999976;stroke-linecap:round;stroke-linejoin:round;stroke-miterlimit:4;stroke-dasharray:none;stroke-opacity:1" />
    </g>
    <g
       style="display:inline"
       inkscape:groupmode="layer"
       id="g4273"
       inkscape:label="Fill copy 1 copy 1 copy">
      <path
         style="opacity:1;fill:#bd9c61;fill-opacity:1;fill-rule:evenodd;stroke:none;stroke-width:3.99999976;stroke-linecap:round;stroke-linejoin:round;stroke-miterlimit:4;stroke-dasharray:none;stroke-opacity:1"
         d="m 288.84937,231.21089 c -12.11685,0 -9.27236,7.66806 -12.71125,9.10265 -3.19718,1.33377 -8.76746,6.38091 -6.06276,7.41578 1.27767,0.48886 6.0481,-1.5918 9.67213,-1.5918 3.62402,0 4.64797,2.06428 9.50998,2.06428 4.86201,0 4.15531,-2.45369 8.53326,-2.45369 4.37797,0 5.9856,2.59316 8.90902,1.08887 2.69982,-1.38923 -2.81396,-5.45933 -6.33423,-6.94643 -3.25781,-1.37623 0.6007,-8.67966 -11.51615,-8.67966 z"
         id="path4275"
         inkscape:connector-curvature="0"
         sodipodi:nodetypes="zsszzzssz" />
    </g>
  </g>
  <g
     inkscape:groupmode="layer"
     id="layer3"
     inkscape:label="Cap 1"
     style="opacity:0.46200005" />
</svg>
