<?xml version="1.0" encoding="UTF-8" standalone="no"?>
<!-- Created with Inkscape (http://www.inkscape.org/) -->

<svg
   xmlns:dc="http://purl.org/dc/elements/1.1/"
   xmlns:cc="http://creativecommons.org/ns#"
   xmlns:rdf="http://www.w3.org/1999/02/22-rdf-syntax-ns#"
   xmlns:svg="http://www.w3.org/2000/svg"
   xmlns="http://www.w3.org/2000/svg"
   xmlns:sodipodi="http://sodipodi.sourceforge.net/DTD/sodipodi-0.dtd"
   xmlns:inkscape="http://www.inkscape.org/namespaces/inkscape"
   width="64.921257mm"
   height="77.597771mm"
   viewBox="0 0 230.03595 274.95273"
   id="svg11472"
   version="1.1"
   inkscape:version="0.91 r13725"
   sodipodi:docname="durian3.svg"
   inkscape:export-filename="C:\Users\Andrej\Desktop\miscellaneous\Programs\Godot Engine\Projects\HotAir\main\hazards\Fruit\textures\source\durian3.png"
   inkscape:export-xdpi="83.726044"
   inkscape:export-ydpi="83.726044">
  <defs
     id="defs11474" />
  <sodipodi:namedview
     id="base"
     pagecolor="#ffffff"
     bordercolor="#666666"
     borderopacity="1.0"
     inkscape:pageopacity="0.0"
     inkscape:pageshadow="2"
     inkscape:zoom="1.8101934"
     inkscape:cx="70.883588"
     inkscape:cy="144.67404"
     inkscape:document-units="px"
     inkscape:current-layer="layer1"
     showgrid="false"
     inkscape:snap-global="true"
     inkscape:snap-bbox="true"
     inkscape:snap-bbox-midpoints="true"
     inkscape:window-width="1366"
     inkscape:window-height="745"
     inkscape:window-x="-8"
     inkscape:window-y="-8"
     inkscape:window-maximized="1"
     fit-margin-top="0"
     fit-margin-left="0"
     fit-margin-right="0"
     fit-margin-bottom="0" />
  <metadata
     id="metadata11477">
    <rdf:RDF>
      <cc:Work
         rdf:about="">
        <dc:format>image/svg+xml</dc:format>
        <dc:type
           rdf:resource="http://purl.org/dc/dcmitype/StillImage" />
        <dc:title></dc:title>
      </cc:Work>
    </rdf:RDF>
  </metadata>
  <g
     inkscape:label="Layer 1"
     inkscape:groupmode="layer"
     id="layer1"
     style="display:inline"
     transform="translate(-105.74344,-405.30584)">
    <path
       style="opacity:1;fill:#7fab35;fill-opacity:1;fill-rule:evenodd;stroke:none;stroke-width:4;stroke-linecap:round;stroke-linejoin:round;stroke-miterlimit:4;stroke-dasharray:none;stroke-opacity:1"
       inkscape:transform-center-x="-0.056350549"
       inkscape:transform-center-y="0.023072853"
       d="m 283.86206,644.26022 -0.0155,15.44853 -12.95013,-6.16715 -2.12053,15.27344 -11.9651,-8.20933 -4.17812,14.75717 -10.71279,-10.06812 -6.14238,13.91125 -9.22118,-11.70201 -7.96942,12.75457 -7.52358,-13.0745 -9.61846,11.31298 -5.65792,-14.15491 -11.0526,9.61868 -3.66588,-14.91914 -12.23988,7.70952 -1.59193,-15.3501 -13.15372,5.62812 0.51757,-15.43815 -13.77374,3.42101 2.61551,-15.18135 -14.08607,1.13748 4.65502,-14.58543 -14.08373,-1.17145 6.59055,-13.66368 -13.7668,-3.45423 8.37884,-12.43672 -13.14233,-5.65983 9.97999,-10.93192 -12.22431,-7.73902 11.35819,-9.18295 -11.03319,-9.64531 12.48267,-7.22883 -9.59562,-11.33616 13.32831,-5.11323 -7.9437,-12.77376 13.8762,-2.88342 -6.11432,-13.92603 14.11414,-0.58919 -4.14836,-14.7672 14.03678,1.7182 -2.08974,-15.27851 13.64586,3.9872 0.0156,-15.44852 12.95012,6.16716 2.12053,-15.27345 11.96511,8.20934 4.17811,-14.75717 10.7128,10.06812 6.14237,-13.91125 9.22119,11.70201 7.96942,-12.75457 7.52358,13.07449 9.61845,-11.31298 5.65793,14.15491 11.0526,-9.61868 3.66587,14.91914 12.23988,-7.70951 1.59192,15.3501 13.15372,-5.62813 -0.51756,15.43816 13.77374,-3.42101 -2.61551,15.18135 14.08607,-1.13748 -4.65503,14.58543 14.08375,1.17145 -6.59055,13.66368 13.7668,3.45423 -8.37885,12.43671 13.14235,5.65984 -9.98,10.93192 12.22431,7.73901 -11.3582,9.18295 11.0332,9.64532 -12.48267,7.22882 9.59562,11.33615 -13.32831,5.11324 7.9437,12.77376 -13.8762,2.88341 6.11431,13.92604 -14.11413,0.58919 4.14836,14.76721 -14.03678,-1.71821 2.08974,15.27852 z"
       id="path12022"
       inkscape:connector-curvature="0" />
    <path
       style="opacity:1;fill:#88b839;fill-opacity:1;fill-rule:evenodd;stroke:none;stroke-width:4;stroke-linecap:round;stroke-linejoin:round;stroke-miterlimit:4;stroke-dasharray:none;stroke-opacity:1"
       d="m 222.93573,428.30836 -7.96955,12.75478 -9.22161,-11.70149 -6.14203,13.91089 -10.71316,-10.06876 -4.17765,14.75715 -11.9652,-8.20954 -2.11993,15.27407 -12.94974,-6.16687 -0.0156,15.44775 -13.64654,-3.98666 2.09037,15.27823 -14.03692,-1.7175 4.14809,14.76687 -14.11468,0.58917 6.11402,13.92619 -13.87517,2.88333 7.9431,12.77285 -13.32768,5.11359 9.59488,11.33603 -12.48315,7.22989 11.03358,9.64494 -11.35708,9.18223 12.2234,7.73985 -9.9806,10.93168 13.14261,5.65968 -8.37862,12.43657 13.7663,3.45446 -6.58996,13.66356 14.08357,1.17139 -4.65512,14.58483 11.98855,-0.96712 1.58178,-1.13528 0.46972,0.96992 0.0467,-0.004 -0.0124,0.0736 6.25401,12.90764 1.6191,-0.40299 10.90914,-10.58428 9.5,13.61631 10.06149,-13.28281 11.6417,12.18645 7.75492,-14.48756 13.52522,10.48563 5.27414,-15.36856 15.10701,8.54997 2.67673,-15.9063 16.34972,6.42255 0.0202,-16.08972 17.22692,4.15339 -2.63785,-15.91187 17.72152,1.78976 -5.23682,-15.37967 17.8195,-0.61418 -7.71914,-14.50285 17.51777,-3.00284 -10.02882,-13.30367 16.8272,-5.32479 -12.11453,-11.80571 15.76024,-7.52864 -13.9296,-10.04514 12.94819,-8.63473 -3.27399,-0.82124 0.97986,-2.03154 -11.74746,-6.1363 7.03323,-6.35446 -3.7577,-0.31266 2.30191,-7.21182 -9.56999,-3.40025 2.63163,-3.22239 -4.79511,0.38768 2.12148,-12.31568 -6.02539,-1.24782 -7.25408,1.80226 0.51793,-15.43803 -13.15349,5.62773 -1.59267,-15.3491 -12.24051,7.70929 -3.66594,-14.91973 -11.05224,9.61855 -5.65831,-14.15407 -9.61821,11.31242 -7.52317,-13.07438 z"
       id="path12022-4"
       inkscape:connector-curvature="0" />
    <path
       style="opacity:1;fill:#92c440;fill-opacity:1;fill-rule:evenodd;stroke:none;stroke-width:4;stroke-linecap:round;stroke-linejoin:round;stroke-miterlimit:4;stroke-dasharray:none;stroke-opacity:1"
       d="m 222.93573,428.30836 -7.96955,12.75478 -9.22161,-11.70149 -6.14203,13.91089 -10.71316,-10.06876 -4.17765,14.75715 -11.9652,-8.20954 -2.11993,15.27407 -12.94974,-6.16687 -0.0156,15.44775 -13.64654,-3.98666 2.09037,15.27823 -14.03692,-1.7175 4.14809,14.76687 -14.11468,0.58917 6.11402,13.92619 -13.87517,2.88333 7.9431,12.77285 -13.32768,5.11359 9.59488,11.33603 -12.48315,7.22989 11.03358,9.64494 -11.35708,9.18223 12.2234,7.73985 -9.9806,10.93168 1.00941,0.43493 11.00713,-9.37814 10.9698,13.80945 11.61993,-13.4704 13.44589,12.35876 8.95563,-14.69323 15.62026,10.63432 6.09226,-15.58671 17.44623,8.67086 3.09202,-16.13141 18.8818,6.51426 0.0233,-16.31623 19.89744,4.21037 -3.0469,-16.13698 20.46668,1.81477 -6.0487,-15.59643 20.57867,-0.62253 -8.9152,-14.7085 20.23338,-3.04453 -11.5826,-13.49125 19.43396,-5.40122 -13.99182,-11.97246 14.36354,-6.02514 -3.36264,-0.69617 -7.25409,1.80227 0.39039,-11.6223 -2.0235,-1.28117 2.10749,-1.23393 0.0435,-1.30063 -13.1535,5.62772 -1.59266,-15.34909 -12.24052,7.70929 -3.66592,-14.91973 -11.05224,9.61855 -5.65832,-14.15408 -9.6182,11.31242 -7.52317,-13.07438 z"
       id="path12022-4-2"
       inkscape:connector-curvature="0" />
    <path
       style="opacity:1;fill:#a0cc59;fill-opacity:1;fill-rule:evenodd;stroke:none;stroke-width:4;stroke-linecap:round;stroke-linejoin:round;stroke-miterlimit:4;stroke-dasharray:none;stroke-opacity:1"
       d="m 222.93573,428.30836 -7.96955,12.75478 -9.22161,-11.70149 -6.14203,13.91089 -10.71316,-10.06876 -4.17765,14.75715 -11.9652,-8.20954 -2.11993,15.27407 -12.94974,-6.16687 -0.0156,15.44775 -13.64654,-3.98666 2.09037,15.27823 -14.03692,-1.7175 4.14809,14.76687 -14.11468,0.58917 2.65807,6.05433 4.65356,-5.0594 11.65104,10.04514 7.75958,-11.9419 13.5361,8.64308 5.27882,-12.66724 15.11788,7.04647 2.6783,-13.11051 16.36216,5.29422 0.0202,-13.26059 17.24092,3.4225 -2.6394,-13.11468 17.73551,1.47571 -5.24148,-12.67557 17.83194,-0.5058 -7.72536,-11.95301 3.59594,-0.50858 -2.53831,-6.3503 -9.61821,11.31242 -7.52317,-13.07438 z"
       id="path12022-3"
       inkscape:connector-curvature="0" />
  </g>
  <g
     inkscape:groupmode="layer"
     id="layer8"
     inkscape:label="Layer 2"
     transform="translate(-105.74344,-405.30584)">
    <path
       style="fill:#9e7431;fill-opacity:1;fill-rule:evenodd;stroke:none;stroke-width:1px;stroke-linecap:butt;stroke-linejoin:miter;stroke-opacity:1"
       d="m 167.4944,464.7294 c 0,0 0.79238,-14.78479 -4.25699,-26.25176 -3.99505,-9.07267 -15.20549,-18.98533 -15.20549,-18.98533 l 22.96133,-14.18647 c 0,0 -1.09885,17.46933 3.19272,28.02537 4.88727,12.02131 19.21351,21.72559 19.21351,21.72559 z"
       id="path12141"
       inkscape:connector-curvature="0"
       sodipodi:nodetypes="csccscc" />
  </g>
</svg>
