<?xml version="1.0" encoding="UTF-8" standalone="no"?>
<!-- Created with Inkscape (http://www.inkscape.org/) -->

<svg
   xmlns:dc="http://purl.org/dc/elements/1.1/"
   xmlns:cc="http://creativecommons.org/ns#"
   xmlns:rdf="http://www.w3.org/1999/02/22-rdf-syntax-ns#"
   xmlns:svg="http://www.w3.org/2000/svg"
   xmlns="http://www.w3.org/2000/svg"
   xmlns:xlink="http://www.w3.org/1999/xlink"
   xmlns:sodipodi="http://sodipodi.sourceforge.net/DTD/sodipodi-0.dtd"
   xmlns:inkscape="http://www.inkscape.org/namespaces/inkscape"
   width="235.36554"
   height="235.36554"
   viewBox="0 0 235.36554 235.36554"
   id="svg2"
   version="1.1"
   inkscape:version="0.91 r13725"
   inkscape:export-filename="C:\Users\Andrej\Desktop\miscellaneous\Programs\Godot Engine\Projects\HotAir\main\hazards\fireball\textures\ball_fire.png"
   inkscape:export-xdpi="33.736889"
   inkscape:export-ydpi="33.736889"
   sodipodi:docname="ball_fire.svg">
  <defs
     id="defs4">
    <linearGradient
       inkscape:collect="always"
       id="linearGradient4164">
      <stop
         style="stop-color:#ffe50f;stop-opacity:1"
         offset="0"
         id="stop4166" />
      <stop
         id="stop4178"
         offset="0.44999999"
         style="stop-color:#ffe60f;stop-opacity:1" />
      <stop
         id="stop4172"
         offset="0.89999998"
         style="stop-color:#ff7915;stop-opacity:1" />
      <stop
         style="stop-color:#ff7915;stop-opacity:0"
         offset="1"
         id="stop4168" />
    </linearGradient>
    <radialGradient
       inkscape:collect="always"
       xlink:href="#linearGradient4164"
       id="radialGradient4170"
       cx="295.99567"
       cy="417.52109"
       fx="295.99567"
       fy="417.52109"
       r="117.68277"
       gradientUnits="userSpaceOnUse"
       gradientTransform="matrix(1.0042486,-2.3372276e-8,-3.134928e-7,1.0042487,-179.57032,515.38443)" />
  </defs>
  <sodipodi:namedview
     id="base"
     pagecolor="#ffffff"
     bordercolor="#666666"
     borderopacity="1.0"
     inkscape:pageopacity="0.0"
     inkscape:pageshadow="2"
     inkscape:zoom="0.70710678"
     inkscape:cx="126.26397"
     inkscape:cy="132.05392"
     inkscape:document-units="px"
     inkscape:current-layer="layer1"
     showgrid="false"
     showguides="true"
     inkscape:guide-bbox="true"
     inkscape:snap-object-midpoints="true"
     inkscape:snap-bbox="true"
     inkscape:snap-bbox-edge-midpoints="false"
     inkscape:bbox-paths="true"
     inkscape:snap-page="true"
     units="px"
     fit-margin-top="0"
     fit-margin-left="0"
     fit-margin-right="0"
     fit-margin-bottom="0"
     inkscape:window-width="1366"
     inkscape:window-height="745"
     inkscape:window-x="-8"
     inkscape:window-y="-8"
     inkscape:window-maximized="1" />
  <metadata
     id="metadata7">
    <rdf:RDF>
      <cc:Work
         rdf:about="">
        <dc:format>image/svg+xml</dc:format>
        <dc:type
           rdf:resource="http://purl.org/dc/dcmitype/StillImage" />
        <dc:title></dc:title>
      </cc:Work>
    </rdf:RDF>
  </metadata>
  <g
     inkscape:label="Layer 1"
     inkscape:groupmode="layer"
     id="layer1"
     transform="translate(0,-816.99667)">
    <circle
       style="opacity:1;fill:url(#radialGradient4170);fill-opacity:1;stroke:none;stroke-opacity:1"
       id="path4136"
       cx="117.68277"
       cy="934.67944"
       r="117.68277" />
  </g>
</svg>
